%YAML 1.1
%TAG !u! tag:unity3d.com,2011:
--- !u!1001 &100100000
Prefab:
  m_ObjectHideFlags: 1
  serializedVersion: 2
  m_Modification:
    m_TransformParent: {fileID: 0}
    m_Modifications: []
    m_RemovedComponents: []
  m_ParentPrefab: {fileID: 0}
  m_RootGameObject: {fileID: 1522118260689494}
  m_IsPrefabParent: 1
--- !u!1 &1522118260689494
GameObject:
  m_ObjectHideFlags: 0
  m_PrefabParentObject: {fileID: 0}
  m_PrefabInternal: {fileID: 100100000}
  serializedVersion: 5
  m_Component:
  - component: {fileID: 4705412849919068}
  - component: {fileID: 114489964201837372}
  m_Layer: 0
  m_Name: Anim 256
  m_TagString: Untagged
  m_Icon: {fileID: 0}
  m_NavMeshLayer: 0
  m_StaticEditorFlags: 0
  m_IsActive: 1
--- !u!4 &4705412849919068
Transform:
  m_ObjectHideFlags: 1
  m_PrefabParentObject: {fileID: 0}
  m_PrefabInternal: {fileID: 100100000}
  m_GameObject: {fileID: 1522118260689494}
  m_LocalRotation: {x: 0, y: 0, z: 0, w: 1}
  m_LocalPosition: {x: 0, y: 0, z: 0}
  m_LocalScale: {x: 1, y: 1, z: 1}
  m_Children: []
  m_Father: {fileID: 0}
  m_RootOrder: 0
  m_LocalEulerAnglesHint: {x: 0, y: 0, z: 0}
--- !u!114 &114489964201837372
MonoBehaviour:
  m_ObjectHideFlags: 1
  m_PrefabParentObject: {fileID: 0}
  m_PrefabInternal: {fileID: 100100000}
  m_GameObject: {fileID: 1522118260689494}
  m_Enabled: 1
  m_EditorHideFlags: 0
  m_Script: {fileID: 11500000, guid: 325b693f5f6e20d4dad987693f511798, type: 3}
  m_Name: 
  m_EditorClassIdentifier: 
  data:
  - handLeftPos: {x: -0.49228045, y: 1.0392333, z: 0.1218394}
    handRightPos: {x: 0.20405924, y: 0.8247952, z: 0.0715518}
    headPos: {x: -0.08009317, y: 1.638463, z: 0.04903145}
    legLeftPos: {x: -0.3731824, y: 0.15957706, z: -0.21908535}
    legRightPos: {x: 0.15989704, y: 0.19826603, z: -0.12272225}
    hipsPos: {x: -0.09476511, y: 1.0428357, z: -0.071978115}
    handLeftRot: {x: 0.01576882, y: -0.4355875, z: -0.17505875, w: 0.88281894}
    handRightRot: {x: 0.22306225, y: 0.10489499, z: 0.11113495, w: 0.9627509}
    headRot: {x: 0.20878546, y: -0.040335868, z: -0.02601429, w: 0.976783}
    legLeftRot: {x: -0.43233162, y: 0.51791054, z: 0.53516585, w: 0.5083855}
    legRightRot: {x: -0.036977634, y: -0.7102585, z: -0.6820085, w: 0.17038164}
    hipsRot: {x: -0.6977341, y: 0.7070491, z: -0.108655274, w: 0.03798426}
  - handLeftPos: {x: -0.49059498, y: 1.0387281, z: 0.12395879}
    handRightPos: {x: 0.20262831, y: 0.8265462, z: 0.075426094}
    headPos: {x: -0.0800006, y: 1.6384823, z: 0.048663113}
    legLeftPos: {x: -0.37316695, y: 0.15949221, z: -0.2189735}
    legRightPos: {x: 0.15985848, y: 0.19830845, z: -0.12266247}
    hipsPos: {x: -0.09509295, y: 1.0426699, z: -0.071507566}
    handLeftRot: {x: 0.017378628, y: -0.4303249, z: -0.17738895, w: 0.88490206}
    handRightRot: {x: 0.21783979, y: 0.10530247, z: 0.10822289, w: 0.96423286}
    headRot: {x: 0.2080893, y: -0.040287063, z: -0.02684753, w: 0.97691095}
    legLeftRot: {x: -0.4320522, y: 0.5179798, z: 0.53547144, w: 0.5082307}
    legRightRot: {x: -0.036585256, y: -0.7103346, z: -0.6819604, w: 0.17034197}
    hipsRot: {x: -0.69806236, y: 0.70692205, z: -0.10736417, w: 0.037988354}
  - handLeftPos: {x: -0.49059883, y: 1.0393915, z: 0.123578876}
    handRightPos: {x: 0.20160623, y: 0.82870996, z: 0.079734296}
    headPos: {x: -0.07986561, y: 1.6385325, z: 0.048248492}
    legLeftPos: {x: -0.37329423, y: 0.15924922, z: -0.2191355}
    legRightPos: {x: 0.1597582, y: 0.19817346, z: -0.12285917}
    hipsPos: {x: -0.095440075, y: 1.0422456, z: -0.07128193}
    handLeftRot: {x: 0.009052977, y: -0.43207848, z: -0.170398, w: 0.8855455}
    handRightRot: {x: 0.21260506, y: 0.10718093, z: 0.1027133, w: 0.9657957}
    headRot: {x: 0.20761637, y: -0.03992496, z: -0.028004592, w: 0.976994}
    legLeftRot: {x: -0.43182215, y: 0.5178893, z: 0.5357451, w: 0.5082299}
    legRightRot: {x: -0.0369512, y: -0.7101973, z: -0.6819563, w: 0.17085075}
    hipsRot: {x: -0.69848216, y: 0.7067435, z: -0.105761, w: 0.038090874}
  - handLeftPos: {x: -0.48988146, y: 1.0397656, z: 0.12331468}
    handRightPos: {x: 0.20117812, y: 0.8319344, z: 0.08500288}
    headPos: {x: -0.07936421, y: 1.6384823, z: 0.04822149}
    legLeftPos: {x: -0.37299725, y: 0.15943821, z: -0.21897544}
    legRightPos: {x: 0.15990862, y: 0.19831231, z: -0.12283989}
    hipsPos: {x: -0.0953128, y: 1.0424037, z: -0.07078439}
    handLeftRot: {x: 0.0022706392, y: -0.43378043, z: -0.165883, w: 0.88561404}
    handRightRot: {x: 0.20605756, y: 0.112496726, z: 0.095376454, w: 0.96736145}
    headRot: {x: 0.20730631, y: -0.039270718, z: -0.028900977, w: 0.9770602}
    legLeftRot: {x: -0.43149573, y: 0.51773757, z: 0.5363905, w: 0.507981}
    legRightRot: {x: -0.037288398, y: -0.7100356, z: -0.6819449, w: 0.17149365}
    hipsRot: {x: -0.69856125, y: 0.70680094, z: -0.10508538, w: 0.037439816}
  - handLeftPos: {x: -0.4897773, y: 1.0393451, z: 0.12299648}
    handRightPos: {x: 0.20160624, y: 0.83280605, z: 0.08552164}
    headPos: {x: -0.07944135, y: 1.6385363, z: 0.04820028}
    legLeftPos: {x: -0.3730127, y: 0.15944593, z: -0.21896964}
    legRightPos: {x: 0.15988162, y: 0.19834317, z: -0.1228476}
    hipsPos: {x: -0.095316656, y: 1.0424577, z: -0.07078246}
    handLeftRot: {x: 0.004166516, y: -0.43260017, z: -0.16849, w: 0.88569236}
    handRightRot: {x: 0.2045057, y: 0.1153224, z: 0.093107246, w: 0.96757907}
    headRot: {x: 0.20742202, y: -0.039077774, z: -0.028674943, w: 0.97705007}
    legLeftRot: {x: -0.43150777, y: 0.51769304, z: 0.5363963, w: 0.50801}
    legRightRot: {x: -0.03730555, y: -0.710047, z: -0.68191445, w: 0.17156419}
    hipsRot: {x: -0.69850874, y: 0.7068221, z: -0.10535336, w: 0.037265755}
  - handLeftPos: {x: -0.48925662, y: 1.0390521, z: 0.12341109}
    handRightPos: {x: 0.20177595, y: 0.835367, z: 0.0886959}
    headPos: {x: -0.07936807, y: 1.6386212, z: 0.04824656}
    legLeftPos: {x: -0.37306666, y: 0.15945749, z: -0.2189658}
    legRightPos: {x: 0.15988934, y: 0.1983586, z: -0.122907385}
    hipsPos: {x: -0.095428504, y: 1.0425041, z: -0.07071882}
    handLeftRot: {x: 0.0047716848, y: -0.43120322, z: -0.17042467, w: 0.8860003}
    handRightRot: {x: 0.19939293, y: 0.12051617, z: 0.08800322, w: 0.9684905}
    headRot: {x: 0.20736523, y: -0.03868564, z: -0.028630221, w: 0.97707903}
    legLeftRot: {x: -0.4311978, y: 0.517702, z: 0.536608, w: 0.50804055}
    legRightRot: {x: -0.037461028, y: -0.70997304, z: -0.6818685, w: 0.17201802}
    hipsRot: {x: -0.6985699, y: 0.7068217, z: -0.10509719, w: 0.03684916}
  - handLeftPos: {x: -0.4885045, y: 1.0374283, z: 0.12450261}
    handRightPos: {x: 0.20344216, y: 0.8421244, z: 0.0960858}
    headPos: {x: -0.078974664, y: 1.6386057, z: 0.048483763}
    legLeftPos: {x: -0.3729394, y: 0.15942664, z: -0.21892144}
    legRightPos: {x: 0.15996647, y: 0.19835474, z: -0.12296717}
    hipsPos: {x: -0.095455505, y: 1.0424501, z: -0.07026178}
    handLeftRot: {x: 0.006202806, y: -0.42617714, z: -0.17191462, w: 0.88813287}
    handRightRot: {x: 0.18574996, y: 0.13468269, z: 0.075112045, w: 0.9704204}
    headRot: {x: 0.20689182, y: -0.038026053, z: -0.028475558, w: 0.9772098}
    legLeftRot: {x: -0.43103725, y: 0.51742035, z: 0.5370594, w: 0.50798655}
    legRightRot: {x: -0.037851334, y: -0.70990306, z: -0.6817551, w: 0.17267008}
    hipsRot: {x: -0.6986227, y: 0.70687944, z: -0.10465158, w: 0.035997488}
  - handLeftPos: {x: -0.4868576, y: 1.0337912, z: 0.12606081}
    handRightPos: {x: 0.20708312, y: 0.85623693, z: 0.10850514}
    headPos: {x: -0.07839227, y: 1.6387099, z: 0.048555113}
    legLeftPos: {x: -0.3729471, y: 0.15946907, z: -0.21885009}
    legRightPos: {x: 0.16000119, y: 0.1984203, z: -0.12296138}
    hipsPos: {x: -0.09584891, y: 1.042481, z: -0.069752656}
    handLeftRot: {x: 0.008297191, y: -0.41823733, z: -0.17044051, w: 0.8921652}
    handRightRot: {x: 0.15653637, y: 0.16145925, z: 0.054634478, w: 0.9728527}
    headRot: {x: 0.2060055, y: -0.037214756, z: -0.02835802, w: 0.97743165}
    legLeftRot: {x: -0.43068966, y: 0.5170825, z: 0.5378612, w: 0.5077772}
    legRightRot: {x: -0.03790717, y: -0.70986426, z: -0.6816994, w: 0.17303681}
    hipsRot: {x: -0.69848126, y: 0.7070935, z: -0.104517534, w: 0.034911785}
  - handLeftPos: {x: -0.4862135, y: 1.0269722, z: 0.12813006}
    handRightPos: {x: 0.21076651, y: 0.87248623, z: 0.11938749}
    headPos: {x: -0.078126125, y: 1.6388873, z: 0.048730604}
    legLeftPos: {x: -0.3730127, y: 0.15945363, z: -0.21884044}
    legRightPos: {x: 0.1600089, y: 0.19840488, z: -0.12293631}
    hipsPos: {x: -0.096115045, y: 1.0425388, z: -0.069444105}
    handLeftRot: {x: 0.022664025, y: -0.40751946, z: -0.16955823, w: 0.89703083}
    handRightRot: {x: 0.12358225, y: 0.18006928, z: 0.0612782, w: 0.97393405}
    headRot: {x: 0.20522463, y: -0.036812656, z: -0.02867168, w: 0.977602}
    legLeftRot: {x: -0.4306204, y: 0.5167507, z: 0.5380538, w: 0.50796956}
    legRightRot: {x: -0.037265427, y: -0.70996237, z: -0.68170935, w: 0.17273417}
    hipsRot: {x: -0.6980311, y: 0.70750064, z: -0.10495903, w: 0.03433671}
  - handLeftPos: {x: -0.48463985, y: 1.0203613, z: 0.12872209}
    handRightPos: {x: 0.21462733, y: 0.89040947, z: 0.1311608}
    headPos: {x: -0.07745502, y: 1.6390377, z: 0.04929565}
    legLeftPos: {x: -0.3730011, y: 0.15938807, z: -0.21890022}
    legRightPos: {x: 0.15994719, y: 0.19839716, z: -0.1229151}
    hipsPos: {x: -0.096423596, y: 1.0425773, z: -0.0691934}
    handLeftRot: {x: 0.03005286, y: -0.3985668, z: -0.16311012, w: 0.902018}
    handRightRot: {x: 0.09215427, y: 0.20024072, z: 0.080258794, w: 0.97209555}
    headRot: {x: 0.20416772, y: -0.03610079, z: -0.029516945, w: 0.9778247}
    legLeftRot: {x: -0.43107617, y: 0.5161945, z: 0.5379769, w: 0.50822985}
    legRightRot: {x: -0.036943316, y: -0.7098739, z: -0.6818352, w: 0.17266998}
    hipsRot: {x: -0.69757134, y: 0.7078341, z: -0.10572226, w: 0.03446689}
  - handLeftPos: {x: -0.4852647, y: 1.0200566, z: 0.12708868}
    handRightPos: {x: 0.21509402, y: 0.8925385, z: 0.13178562}
    headPos: {x: -0.07726603, y: 1.6392151, z: 0.049440283}
    legLeftPos: {x: -0.37304354, y: 0.15939578, z: -0.21890022}
    legRightPos: {x: 0.15992405, y: 0.19839716, z: -0.1228881}
    hipsPos: {x: -0.096423596, y: 1.0425503, z: -0.0692204}
    handLeftRot: {x: 0.024800412, y: -0.40228575, z: -0.16323245, w: 0.9005034}
    handRightRot: {x: 0.08971404, y: 0.2053075, z: 0.08425337, w: 0.9709282}
    headRot: {x: 0.20383106, y: -0.036013126, z: -0.029547662, w: 0.9778972}
    legLeftRot: {x: -0.43122017, y: 0.51622254, z: 0.53779703, w: 0.5082696}
    legRightRot: {x: -0.03708913, y: -0.70985985, z: -0.6818211, w: 0.1727521}
    hipsRot: {x: -0.6975171, y: 0.70783675, z: -0.105918735, w: 0.034902837}
  - handLeftPos: {x: -0.48497155, y: 1.0169325, z: 0.12624209}
    handRightPos: {x: 0.21697235, y: 0.9007499, z: 0.13627124}
    headPos: {x: -0.077046186, y: 1.6393887, z: 0.049386285}
    legLeftPos: {x: -0.37300882, y: 0.15943821, z: -0.21888287}
    legRightPos: {x: 0.15994719, y: 0.19845502, z: -0.12285917}
    hipsPos: {x: -0.09648917, y: 1.0425888, z: -0.06898899}
    handLeftRot: {x: 0.026287949, y: -0.40024254, z: -0.168139, w: 0.9004688}
    handRightRot: {x: 0.075852044, y: 0.21847132, z: 0.0862398, w: 0.96906114}
    headRot: {x: 0.20320709, y: -0.035601944, z: -0.029604916, w: 0.9780404}
    legLeftRot: {x: -0.43139148, y: 0.5159538, z: 0.5377454, w: 0.50845176}
    legRightRot: {x: -0.037044287, y: -0.70980394, z: -0.6818483, w: 0.1728844}
    hipsRot: {x: -0.69739425, y: 0.7078848, z: -0.106266946, w: 0.035323307}
  - handLeftPos: {x: -0.4843583, y: 1.0133109, z: 0.12571175}
    handRightPos: {x: 0.22111085, y: 0.90847534, z: 0.14067394}
    headPos: {x: -0.07664506, y: 1.6394851, z: 0.04954249}
    legLeftPos: {x: -0.3729857, y: 0.1594035, z: -0.21889058}
    legRightPos: {x: 0.15988934, y: 0.19843574, z: -0.12279554}
    hipsPos: {x: -0.096577875, y: 1.0425773, z: -0.06881542}
    handLeftRot: {x: 0.03066007, y: -0.3960856, z: -0.17656413, w: 0.90055615}
    handRightRot: {x: 0.06295433, y: 0.24079852, z: 0.06574833, w: 0.9662971}
    headRot: {x: 0.202523, y: -0.035144456, z: -0.02954447, w: 0.9782006}
    legLeftRot: {x: -0.4317529, y: 0.5158631, z: 0.5374069, w: 0.5085948}
    legRightRot: {x: -0.036997214, y: -0.7097097, z: -0.68193907, w: 0.17292309}
    hipsRot: {x: -0.69730437, y: 0.7078914, z: -0.10667505, w: 0.03573225}
  - handLeftPos: {x: -0.48247612, y: 1.0029472, z: 0.12549962}
    handRightPos: {x: 0.22492152, y: 0.9252955, z: 0.1502623}
    headPos: {x: -0.076058805, y: 1.6396742, z: 0.04965627}
    legLeftPos: {x: -0.37309366, y: 0.15941507, z: -0.21888866}
    legRightPos: {x: 0.15983148, y: 0.19841646, z: -0.12268947}
    hipsPos: {x: -0.09674758, y: 1.0425388, z: -0.068464436}
    handLeftRot: {x: 0.04152562, y: -0.37945294, z: -0.19128855, w: 0.90426755}
    handRightRot: {x: 0.035777643, y: 0.26245484, z: 0.05598598, w: 0.9626542}
    headRot: {x: 0.2019419, y: -0.034786314, z: -0.029925434, w: 0.97832197}
    legLeftRot: {x: -0.43232208, y: 0.5156574, z: 0.5367972, w: 0.50896376}
    legRightRot: {x: -0.036490776, y: -0.709269, z: -0.68248945, w: 0.17266747}
    hipsRot: {x: -0.6970839, y: 0.70792496, z: -0.10757611, w: 0.0366566}
  - handLeftPos: {x: -0.4809025, y: 0.99689955, z: 0.12541284}
    handRightPos: {x: 0.22646044, y: 0.9327124, z: 0.15494655}
    headPos: {x: -0.07529899, y: 1.6400521, z: 0.049793188}
    legLeftPos: {x: -0.37307054, y: 0.15934178, z: -0.2188848}
    legRightPos: {x: 0.15977748, y: 0.19835088, z: -0.12247155}
    hipsPos: {x: -0.0966743, y: 1.0424461, z: -0.06821952}
    handLeftRot: {x: 0.047002617, y: -0.36910775, z: -0.19800527, w: 0.9068319}
    handRightRot: {x: 0.027841935, y: 0.2689254, z: 0.063824795, w: 0.9606406}
    headRot: {x: 0.20097454, y: -0.032810237, z: -0.031292718, w: 0.9785466}
    legLeftRot: {x: -0.43250236, y: 0.5156644, z: 0.53654754, w: 0.5090666}
    legRightRot: {x: -0.036248684, y: -0.70901924, z: -0.6828156, w: 0.17245471}
    hipsRot: {x: -0.69698435, y: 0.70793366, z: -0.108014174, w: 0.03709025}
  - handLeftPos: {x: -0.47222435, y: 0.96555805, z: 0.12339758}
    handRightPos: {x: 0.2277564, y: 0.95995396, z: 0.17393039}
    headPos: {x: -0.073829494, y: 1.6411282, z: 0.049492348}
    legLeftPos: {x: -0.3729394, y: 0.15941893, z: -0.21915093}
    legRightPos: {x: 0.15983534, y: 0.19831617, z: -0.122444555}
    hipsPos: {x: -0.096709006, y: 1.0423961, z: -0.067843474}
    handLeftRot: {x: 0.07692842, y: -0.308382, z: -0.23394091, w: 0.91883314}
    handRightRot: {x: 0.0132562965, y: 0.2861432, z: 0.14745857, w: 0.94667965}
    headRot: {x: 0.19793953, y: -0.028482987, z: -0.032739542, w: 0.97925323}
    legLeftRot: {x: -0.43349805, y: 0.51535726, z: 0.53554225, w: 0.5095891}
    legRightRot: {x: -0.035759367, y: -0.70845115, z: -0.6835331, w: 0.1720484}
    hipsRot: {x: -0.69697636, y: 0.7077593, z: -0.10867629, w: 0.03860287}
  - handLeftPos: {x: -0.46525875, y: 0.9449813, z: 0.12002082}
    handRightPos: {x: 0.22623292, y: 0.9689175, z: 0.18534888}
    headPos: {x: -0.073212385, y: 1.6420153, z: 0.04926672}
    legLeftPos: {x: -0.3729201, y: 0.15947677, z: -0.219095}
    legRightPos: {x: 0.1598469, y: 0.19829689, z: -0.12237705}
    hipsPos: {x: -0.09660872, y: 1.0423305, z: -0.06760048}
    handLeftRot: {x: 0.095748894, y: -0.27111483, z: -0.26011112, w: 0.92177606}
    handRightRot: {x: 0.023345768, y: 0.28873506, z: 0.21581362, w: 0.932476}
    headRot: {x: 0.1947779, y: -0.026402831, z: -0.03212535, w: 0.97996557}
    legLeftRot: {x: -0.4333442, y: 0.5155443, z: 0.53542984, w: 0.50964886}
    legRightRot: {x: -0.035666183, y: -0.7082449, z: -0.6837978, w: 0.17186534}
    hipsRot: {x: -0.6970174, y: 0.70775133, z: -0.10829873, w: 0.03906709}
  - handLeftPos: {x: -0.45707434, y: 0.9224105, z: 0.11402134}
    handRightPos: {x: 0.2234675, y: 0.97238487, z: 0.1953075}
    headPos: {x: -0.0727727, y: 1.6434733, z: 0.04886559}
    legLeftPos: {x: -0.37294325, y: 0.15943435, z: -0.21907571}
    legRightPos: {x: 0.15986234, y: 0.19829303, z: -0.12233656}
    hipsPos: {x: -0.096655004, y: 1.0423034, z: -0.06744428}
    handLeftRot: {x: 0.120308824, y: -0.22985597, z: -0.284678, w: 0.9228491}
    handRightRot: {x: 0.038665276, y: 0.28462598, z: 0.3025807, w: 0.90881133}
    headRot: {x: 0.18864922, y: -0.024155512, z: -0.031953692, w: 0.9812273}
    legLeftRot: {x: -0.4330544, y: 0.5157842, z: 0.535629, w: 0.5094431}
    legRightRot: {x: -0.035190433, y: -0.70830196, z: -0.68388456, w: 0.17138225}
    hipsRot: {x: -0.6968115, y: 0.70795846, z: -0.10821578, w: 0.03921656}
  - handLeftPos: {x: -0.44741654, y: 0.89695084, z: 0.105161935}
    handRightPos: {x: 0.22120349, y: 0.9781625, z: 0.20276682}
    headPos: {x: -0.072495, y: 1.6457835, z: 0.048360333}
    legLeftPos: {x: -0.37295097, y: 0.15949991, z: -0.21913357}
    legRightPos: {x: 0.15990476, y: 0.19837788, z: -0.122417554}
    hipsPos: {x: -0.096377306, y: 1.0421183, z: -0.06723986}
    handLeftRot: {x: 0.15343621, y: -0.18395579, z: -0.30439588, w: 0.9219332}
    handRightRot: {x: 0.03393401, y: 0.29562402, z: 0.3542441, w: 0.88654727}
    headRot: {x: 0.1801057, y: -0.021429341, z: -0.032774154, w: 0.98286754}
    legLeftRot: {x: -0.4331116, y: 0.51574314, z: 0.5355103, w: 0.50956094}
    legRightRot: {x: -0.035365798, y: -0.7084049, z: -0.6837175, w: 0.17158748}
    hipsRot: {x: -0.6970061, y: 0.70795107, z: -0.107141174, w: 0.038839817}
  - handLeftPos: {x: -0.44593164, y: 0.89394623, z: 0.10319682}
    handRightPos: {x: 0.22239529, y: 0.97659665, z: 0.20113534}
    headPos: {x: -0.07267242, y: 1.646312, z: 0.048296694}
    legLeftPos: {x: -0.37305897, y: 0.15950377, z: -0.21905257}
    legRightPos: {x: 0.15993562, y: 0.19838946, z: -0.12252169}
    hipsPos: {x: -0.09627703, y: 1.0421222, z: -0.06723215}
    handLeftRot: {x: 0.16354738, y: -0.1776196, z: -0.30044496, w: 0.9227331}
    handRightRot: {x: 0.021849563, y: 0.2988911, z: 0.339314, w: 0.8916573}
    headRot: {x: 0.17726146, y: -0.021091156, z: -0.03295246, w: 0.98338586}
    legLeftRot: {x: -0.4327059, y: 0.5159679, z: 0.5357987, w: 0.50937474}
    legRightRot: {x: -0.036081195, y: -0.7084259, z: -0.68349993, w: 0.17221743}
    hipsRot: {x: -0.69727796, y: 0.70777327, z: -0.10674923, w: 0.038275577}
  - handLeftPos: {x: -0.4411336, y: 0.8808635, z: 0.09724941}
    handRightPos: {x: 0.22146963, y: 0.9790226, z: 0.20446195}
    headPos: {x: -0.072657, y: 1.6478817, z: 0.048167486}
    legLeftPos: {x: -0.37308595, y: 0.15948449, z: -0.21900822}
    legRightPos: {x: 0.15988548, y: 0.19833545, z: -0.122577615}
    hipsPos: {x: -0.0961536, y: 1.0421067, z: -0.06712415}
    handLeftRot: {x: 0.18281963, y: -0.1531357, z: -0.30639654, w: 0.92154634}
    handRightRot: {x: 0.013030113, y: 0.3014612, z: 0.3549818, w: 0.8848386}
    headRot: {x: 0.17089227, y: -0.019697778, z: -0.0332539, w: 0.9845314}
    legLeftRot: {x: -0.43250024, y: 0.5160531, z: 0.53600603, w: 0.509245}
    legRightRot: {x: -0.03646309, y: -0.70842004, z: -0.6834272, w: 0.17244926}
    hipsRot: {x: -0.6975482, y: 0.7076281, z: -0.10613725, w: 0.037734307}
  - handLeftPos: {x: -0.42935067, y: 0.8534831, z: 0.08287265}
    handRightPos: {x: 0.22042054, y: 0.9822625, z: 0.20964761}
    headPos: {x: -0.07271485, y: 1.6522169, z: 0.0480942}
    legLeftPos: {x: -0.37312067, y: 0.15948449, z: -0.21895808}
    legRightPos: {x: 0.15988934, y: 0.19840102, z: -0.12264704}
    hipsPos: {x: -0.09608804, y: 1.0420759, z: -0.066921666}
    handLeftRot: {x: 0.22832832, y: -0.09870991, z: -0.31273532, w: 0.9166893}
    handRightRot: {x: -0.011139878, y: 0.29661945, z: 0.3699391, w: 0.8803624}
    headRot: {x: 0.15462178, y: -0.017731316, z: -0.033763178, w: 0.98723745}
    legLeftRot: {x: -0.43175623, y: 0.51631963, z: 0.5367216, w: 0.50885236}
    legRightRot: {x: -0.036697283, y: -0.7085686, z: -0.68321705, w: 0.17262208}
    hipsRot: {x: -0.6979582, y: 0.7074652, z: -0.10488478, w: 0.036697432}
  - handLeftPos: {x: -0.41243032, y: 0.81645644, z: 0.05522801}
    handRightPos: {x: 0.21818738, y: 0.9841524, z: 0.21846843}
    headPos: {x: -0.07299255, y: 1.6589705, z: 0.047847364}
    legLeftPos: {x: -0.37303966, y: 0.15944593, z: -0.21879609}
    legRightPos: {x: 0.15997805, y: 0.19843188, z: -0.12265861}
    hipsPos: {x: -0.09601861, y: 1.0421183, z: -0.06653211}
    handLeftRot: {x: 0.28784662, y: -0.019055484, z: -0.331051, w: 0.8984356}
    handRightRot: {x: -0.027159479, y: 0.27746457, z: 0.38714156, w: 0.8788613}
    headRot: {x: 0.12615596, y: -0.015223141, z: -0.034258556, w: 0.99130183}
    legLeftRot: {x: -0.43099913, y: 0.5164436, z: 0.5373413, w: 0.5087142}
    legRightRot: {x: -0.037163794, y: -0.708845, z: -0.6828189, w: 0.17296234}
    hipsRot: {x: -0.69852984, y: 0.7073147, z: -0.1026876, w: 0.034888268}
  - handLeftPos: {x: -0.4011642, y: 0.7975575, z: 0.032250274}
    handRightPos: {x: 0.21838795, y: 0.9813985, z: 0.22351909}
    headPos: {x: -0.0738565, y: 1.66405, z: 0.046455007}
    legLeftPos: {x: -0.37305126, y: 0.15948835, z: -0.2186418}
    legRightPos: {x: 0.1601786, y: 0.19847044, z: -0.122918956}
    hipsPos: {x: -0.09597618, y: 1.0422225, z: -0.066210054}
    handLeftRot: {x: 0.323102, y: 0.032272536, z: -0.35264078, w: 0.877615}
    handRightRot: {x: -0.026661957, y: 0.2553958, z: 0.3646358, w: 0.8950435}
    headRot: {x: 0.10372399, y: -0.014291718, z: -0.03515284, w: 0.993882}
    legLeftRot: {x: -0.43007204, y: 0.5165437, z: 0.5384999, w: 0.508172}
    legRightRot: {x: -0.03829106, y: -0.70897436, z: -0.6823656, w: 0.17397204}
    hipsRot: {x: -0.6989391, y: 0.7073496, z: -0.10026453, w: 0.032980736}
  - handLeftPos: {x: -0.39115548, y: 0.78258866, z: 0.008801993}
    handRightPos: {x: 0.22074454, y: 0.97410506, z: 0.22682641}
    headPos: {x: -0.07448904, y: 1.6682657, z: 0.04467503}
    legLeftPos: {x: -0.3731901, y: 0.15959634, z: -0.2185261}
    legRightPos: {x: 0.16033673, y: 0.19861315, z: -0.123196654}
    hipsPos: {x: -0.09577948, y: 1.0423498, z: -0.06598828}
    handLeftRot: {x: 0.35447344, y: 0.07859299, z: -0.36718848, w: 0.85635525}
    handRightRot: {x: -0.027123792, y: 0.23530945, z: 0.2953064, w: 0.92557436}
    headRot: {x: 0.08582058, y: -0.013306902, z: -0.03577908, w: 0.99557906}
    legLeftRot: {x: -0.42854983, y: 0.5173374, z: 0.5398163, w: 0.50725305}
    legRightRot: {x: -0.03937216, y: -0.7089821, z: -0.68191975, w: 0.17544127}
    hipsRot: {x: -0.69947886, y: 0.70736814, z: -0.096865475, w: 0.03125259}
  - handLeftPos: {x: -0.3910012, y: 0.78597504, z: 0.009619664}
    handRightPos: {x: 0.2215082, y: 0.9715556, z: 0.22604732}
    headPos: {x: -0.07460861, y: 1.6680188, z: 0.044264264}
    legLeftPos: {x: -0.37316695, y: 0.15963878, z: -0.21839496}
    legRightPos: {x: 0.16027117, y: 0.19859773, z: -0.12314073}
    hipsPos: {x: -0.095710054, y: 1.0422803, z: -0.06591307}
    handLeftRot: {x: 0.3512068, y: 0.074772224, z: -0.36688763, w: 0.8581704}
    handRightRot: {x: -0.021287186, y: 0.23044075, z: 0.27433375, w: 0.9333729}
    headRot: {x: 0.08703778, y: -0.013470134, z: -0.035439037, w: 0.99548334}
    legLeftRot: {x: -0.42856032, y: 0.51714355, z: 0.5398757, w: 0.5073786}
    legRightRot: {x: -0.03966698, y: -0.7089437, z: -0.6818456, w: 0.17581764}
    hipsRot: {x: -0.69955444, y: 0.7074083, z: -0.0959426, w: 0.031497974}
  - handLeftPos: {x: -0.38637286, y: 0.7812426, z: -0.00021746807}
    handRightPos: {x: 0.22429293, y: 0.96835434, z: 0.22827277}
    headPos: {x: -0.07509458, y: 1.6696001, z: 0.043205533}
    legLeftPos: {x: -0.37302038, y: 0.1595655, z: -0.21832746}
    legRightPos: {x: 0.16037144, y: 0.19858615, z: -0.12327958}
    hipsPos: {x: -0.09567148, y: 1.0422032, z: -0.0657183}
    handLeftRot: {x: 0.3619772, y: 0.094331056, z: -0.37138617, w: 0.84979206}
    handRightRot: {x: -0.01679299, y: 0.21727389, z: 0.24049059, w: 0.9458723}
    headRot: {x: 0.08056658, y: -0.012950219, z: -0.03513083, w: 0.99604577}
    legLeftRot: {x: -0.42862418, y: 0.51690644, z: 0.5400346, w: 0.5073972}
    legRightRot: {x: -0.04064209, y: -0.7088963, z: -0.68156314, w: 0.17687865}
    hipsRot: {x: -0.6998161, y: 0.7074216, z: -0.09398262, w: 0.031296078}
  - handLeftPos: {x: -0.38158256, y: 0.7762941, z: -0.010235877}
    handRightPos: {x: 0.22432765, y: 0.9633519, z: 0.22852732}
    headPos: {x: -0.07553427, y: 1.6710234, z: 0.042196944}
    legLeftPos: {x: -0.37300882, y: 0.1596002, z: -0.21833132}
    legRightPos: {x: 0.16045628, y: 0.19862087, z: -0.12343772}
    hipsPos: {x: -0.095740914, y: 1.0421492, z: -0.06551967}
    handLeftRot: {x: 0.37187365, y: 0.11246516, z: -0.37457323, w: 0.8418768}
    handRightRot: {x: -0.013341453, y: 0.20610209, z: 0.20549597, w: 0.95661664}
    headRot: {x: 0.074985124, y: -0.012436749, z: -0.034821205, w: 0.9964989}
    legLeftRot: {x: -0.42839858, y: 0.5168393, z: 0.5402114, w: 0.5074679}
    legRightRot: {x: -0.041406833, y: -0.70890594, z: -0.68129134, w: 0.17770757}
    hipsRot: {x: -0.7001096, y: 0.7073972, z: -0.091898516, w: 0.031470243}
  - handLeftPos: {x: -0.37315518, y: 0.77309674, z: -0.025455374}
    handRightPos: {x: 0.22834659, y: 0.9546545, z: 0.22838846}
    headPos: {x: -0.076444514, y: 1.6733336, z: 0.040200982}
    legLeftPos: {x: -0.37296253, y: 0.15971205, z: -0.2182542}
    legRightPos: {x: 0.16056429, y: 0.19865173, z: -0.12362285}
    hipsPos: {x: -0.0957872, y: 1.041964, z: -0.0648717}
    handLeftRot: {x: 0.38199696, y: 0.13181624, z: -0.3678791, w: 0.837477}
    handRightRot: {x: -0.0018673167, y: 0.19129412, z: 0.11944591, w: 0.974236}
    headRot: {x: 0.06606083, y: -0.011426404, z: -0.03444893, w: 0.9971553}
    legLeftRot: {x: -0.42810836, y: 0.5166756, z: 0.5402413, w: 0.5078475}
    legRightRot: {x: -0.042766586, y: -0.70892656, z: -0.680749, w: 0.17937374}
    hipsRot: {x: -0.70046896, y: 0.7075524, z: -0.087566435, w: 0.032327037}
  - handLeftPos: {x: -0.36181194, y: 0.76694876, z: -0.04723167}
    handRightPos: {x: 0.23365758, y: 0.9417569, z: 0.23079519}
    headPos: {x: -0.07706934, y: 1.6742439, z: 0.03925796}
    legLeftPos: {x: -0.3728854, y: 0.15984705, z: -0.21835254}
    legRightPos: {x: 0.16068386, y: 0.19871344, z: -0.12381569}
    hipsPos: {x: -0.09534365, y: 1.0415745, z: -0.063550696}
    handLeftRot: {x: 0.398856, y: 0.14999469, z: -0.3577959, w: 0.8309017}
    handRightRot: {x: 0.026172914, y: 0.18581866, z: 0.02805892, w: 0.9818346}
    headRot: {x: 0.062480748, y: -0.010929424, z: -0.034471817, w: 0.9973908}
    legLeftRot: {x: -0.42762333, y: 0.5165497, z: 0.54079235, w: 0.5077978}
    legRightRot: {x: -0.04408226, y: -0.7090546, z: -0.6801379, w: 0.18086122}
    hipsRot: {x: -0.70045847, y: 0.7084607, z: -0.07951944, w: 0.03343695}
  - handLeftPos: {x: -0.3563968, y: 0.76559114, z: -0.058983777}
    handRightPos: {x: 0.24109761, y: 0.93330634, z: 0.22531639}
    headPos: {x: -0.080972575, y: 1.6773758, z: 0.03483984}
    legLeftPos: {x: -0.3728738, y: 0.15994732, z: -0.21836026}
    legRightPos: {x: 0.16083813, y: 0.19868258, z: -0.12374049}
    hipsPos: {x: -0.096219175, y: 1.0421569, z: -0.06266939}
    handLeftRot: {x: 0.40751085, y: 0.12858526, z: -0.3465224, w: 0.8350587}
    handRightRot: {x: 0.0358201, y: 0.2135992, z: 0.07379553, w: 0.9734714}
    headRot: {x: 0.048943773, y: -0.00996974, z: -0.036063325, w: 0.99810046}
    legLeftRot: {x: -0.4277149, y: 0.5162519, z: 0.5406218, w: 0.50820476}
    legRightRot: {x: -0.043337107, y: -0.7093402, z: -0.68019867, w: 0.17968878}
    hipsRot: {x: -0.69963413, y: 0.70923805, z: -0.07822659, w: 0.03706881}
  - handLeftPos: {x: -0.35526672, y: 0.76556027, z: -0.0631647}
    handRightPos: {x: 0.24297594, y: 0.93081474, z: 0.21931499}
    headPos: {x: -0.08244207, y: 1.6776032, z: 0.033779178}
    legLeftPos: {x: -0.37291625, y: 0.16005147, z: -0.21837568}
    legRightPos: {x: 0.1608497, y: 0.198806, z: -0.12355921}
    hipsPos: {x: -0.096064895, y: 1.0418754, z: -0.061658867}
    handLeftRot: {x: 0.41087458, y: 0.09889601, z: -0.33412683, w: 0.8424731}
    handRightRot: {x: 0.034739245, y: 0.21642677, z: 0.11716868, w: 0.9686197}
    headRot: {x: 0.047285926, y: -0.011246287, z: -0.036248446, w: 0.9981601}
    legLeftRot: {x: -0.42762437, y: 0.5160612, z: 0.54059803, w: 0.50849986}
    legRightRot: {x: -0.042471968, y: -0.70941645, z: -0.6804905, w: 0.17848553}
    hipsRot: {x: -0.69974405, y: 0.7094238, z: -0.07436214, w: 0.039324503}
  - handLeftPos: {x: -0.35484633, y: 0.7654986, z: -0.06677865}
    handRightPos: {x: 0.24436058, y: 0.92619413, z: 0.21456903}
    headPos: {x: -0.083668575, y: 1.6775339, z: 0.033360705}
    legLeftPos: {x: -0.37301654, y: 0.16000904, z: -0.2183024}
    legRightPos: {x: 0.160707, y: 0.19884071, z: -0.123210154}
    hipsPos: {x: -0.09608031, y: 1.0417789, z: -0.060563497}
    handLeftRot: {x: 0.41578114, y: 0.06976653, z: -0.32013282, w: 0.8483948}
    handRightRot: {x: 0.044178154, y: 0.21908255, z: 0.15576081, w: 0.96217966}
    headRot: {x: 0.046479814, y: -0.013729671, z: -0.036693916, w: 0.99815065}
    legLeftRot: {x: -0.42731968, y: 0.5161584, z: 0.54054576, w: 0.508713}
    legRightRot: {x: -0.04232949, y: -0.709346, z: -0.68080324, w: 0.17760429}
    hipsRot: {x: -0.69980437, y: 0.7093771, z: -0.073039636, w: 0.04151188}
  - handLeftPos: {x: -0.3556563, y: 0.76487374, z: -0.068741836}
    handRightPos: {x: 0.24687915, y: 0.9199999, z: 0.20903818}
    headPos: {x: -0.084914364, y: 1.6775069, z: 0.033287425}
    legLeftPos: {x: -0.37289697, y: 0.16000904, z: -0.21830048}
    legRightPos: {x: 0.16058744, y: 0.19889857, z: -0.12263162}
    hipsPos: {x: -0.09639658, y: 1.0416209, z: -0.0594122}
    handLeftRot: {x: 0.41871664, y: 0.040599804, z: -0.30955067, w: 0.852764}
    handRightRot: {x: 0.05826668, y: 0.22781405, z: 0.1552756, w: 0.95947653}
    headRot: {x: 0.04477353, y: -0.016560966, z: -0.03731844, w: 0.9981625}
    legLeftRot: {x: -0.42788565, y: 0.5156178, z: 0.5403278, w: 0.5090169}
    legRightRot: {x: -0.04054874, y: -0.70907533, z: -0.6817008, w: 0.17564717}
    hipsRot: {x: -0.6996117, y: 0.7093287, z: -0.07303849, w: 0.0454055}
  - handLeftPos: {x: -0.35628498, y: 0.765298, z: -0.07056039}
    handRightPos: {x: 0.25151905, y: 0.91402936, z: 0.20183149}
    headPos: {x: -0.085894026, y: 1.677827, z: 0.033140864}
    legLeftPos: {x: -0.37256914, y: 0.16003218, z: -0.21865724}
    legRightPos: {x: 0.16069157, y: 0.19891399, z: -0.12238091}
    hipsPos: {x: -0.096574, y: 1.0412968, z: -0.058411323}
    handLeftRot: {x: 0.4199326, y: 0.018496573, z: -0.30527374, w: 0.85447204}
    handRightRot: {x: 0.06752751, y: 0.24174035, z: 0.1196664, w: 0.9605632}
    headRot: {x: 0.042344075, y: -0.019184232, z: -0.038227767, w: 0.9981872}
    legLeftRot: {x: -0.4284175, y: 0.51529396, z: 0.5393135, w: 0.50997245}
    legRightRot: {x: -0.038720503, y: -0.70895886, z: -0.68243873, w: 0.17365307}
    hipsRot: {x: -0.6994737, y: 0.7091231, z: -0.073605865, w: 0.049631473}
  - handLeftPos: {x: -0.81418467, y: 1.1664044, z: 0.054001972}
    handRightPos: {x: 0.5414643, y: 0.9230623, z: 0.025312472}
    headPos: {x: -0.07153082, y: 1.6856759, z: 0.0024743106}
    legLeftPos: {x: -0.37268868, y: 0.15951149, z: -0.21922228}
    legRightPos: {x: 0.15935707, y: 0.19822747, z: -0.12157095}
    hipsPos: {x: -0.092061386, y: 1.0408031, z: -0.057688154}
    handLeftRot: {x: 0.13258506, y: -0.43769693, z: -0.50746113, w: 0.7302916}
    handRightRot: {x: 0.19542214, y: 0.50980806, z: 0.053715587, w: 0.8360745}
    headRot: {x: 0.017136704, y: -0.0630518, z: -0.022343967, w: 0.99761295}
    legLeftRot: {x: -0.43623915, y: 0.51563734, z: 0.5275574, w: 0.5152639}
    legRightRot: {x: -0.035977393, y: -0.7066941, z: -0.68639565, w: 0.16777971}
    hipsRot: {x: -0.69821894, y: 0.7068419, z: -0.08545572, w: 0.074579604}
  - handLeftPos: {x: -0.81449324, y: 1.1670446, z: 0.053338576}
    handRightPos: {x: 0.5410825, y: 0.92269975, z: 0.023904689}
    headPos: {x: -0.07138811, y: 1.6861503, z: 0.0018726276}
    legLeftPos: {x: -0.37261927, y: 0.15952691, z: -0.2192377}
    legRightPos: {x: 0.15935707, y: 0.1981966, z: -0.12161338}
    hipsPos: {x: -0.09182611, y: 1.0407183, z: -0.05760909}
    handLeftRot: {x: 0.13307437, y: -0.4354766, z: -0.5093941, w: 0.73018426}
    handRightRot: {x: 0.1956585, y: 0.5101078, z: 0.052487325, w: 0.8359144}
    headRot: {x: 0.013665575, y: -0.062151477, z: -0.022215076, w: 0.9977259}
    legLeftRot: {x: -0.4361366, y: 0.5156002, z: 0.5275843, w: 0.5153603}
    legRightRot: {x: -0.036135092, y: -0.70689917, z: -0.6861764, w: 0.16777858}
    hipsRot: {x: -0.6984173, y: 0.70677286, z: -0.08466801, w: 0.0742748}
  - handLeftPos: {x: -0.81566185, y: 1.1656985, z: 0.052237425}
    handRightPos: {x: 0.5410053, y: 0.9226496, z: 0.02304652}
    headPos: {x: -0.07134955, y: 1.6860307, z: 0.0012613025}
    legLeftPos: {x: -0.3726964, y: 0.1595462, z: -0.21925892}
    legRightPos: {x: 0.1592645, y: 0.19818889, z: -0.121623024}
    hipsPos: {x: -0.09184539, y: 1.0407375, z: -0.057562806}
    handLeftRot: {x: 0.13897428, y: -0.43589374, z: -0.50860226, w: 0.72938776}
    handRightRot: {x: 0.19513579, y: 0.51060206, z: 0.052265555, w: 0.83574873}
    headRot: {x: 0.012619811, y: -0.061844423, z: -0.021777641, w: 0.9977684}
    legLeftRot: {x: -0.43604082, y: 0.5156156, z: 0.5274364, w: 0.5155774}
    legRightRot: {x: -0.03575384, y: -0.70698786, z: -0.6861762, w: 0.16748762}
    hipsRot: {x: -0.6985475, y: 0.7067024, z: -0.08458337, w: 0.0738157}
  - handLeftPos: {x: -0.8164834, y: 1.1650044, z: 0.05134647}
    handRightPos: {x: 0.5407855, y: 0.9221212, z: 0.022230776}
    headPos: {x: -0.07109113, y: 1.6859497, z: 0.0010896684}
    legLeftPos: {x: -0.3726424, y: 0.15956163, z: -0.21926278}
    legRightPos: {x: 0.1592298, y: 0.19818118, z: -0.12158445}
    hipsPos: {x: -0.09177983, y: 1.0407491, z: -0.05746445}
    handLeftRot: {x: 0.1422152, y: -0.4371923, z: -0.50673234, w: 0.7292874}
    handRightRot: {x: 0.19529882, y: 0.5109735, z: 0.052260138, w: 0.8354839}
    headRot: {x: 0.011787557, y: -0.061498526, z: -0.021536848, w: 0.9978052}
    legLeftRot: {x: -0.4360462, y: 0.5155369, z: 0.5274174, w: 0.51567084}
    legRightRot: {x: -0.036003605, y: -0.70702076, z: -0.6861141, w: 0.16754958}
    hipsRot: {x: -0.6986436, y: 0.7066538, z: -0.08444066, w: 0.07353444}
  - handLeftPos: {x: -0.8171352, y: 1.1644566, z: 0.050634865}
    handRightPos: {x: 0.54098994, y: 0.92161596, z: 0.021627165}
    headPos: {x: -0.070998564, y: 1.6859343, z: 0.0007001172}
    legLeftPos: {x: -0.37261155, y: 0.1595385, z: -0.219257}
    legRightPos: {x: 0.15926836, y: 0.19815418, z: -0.12161338}
    hipsPos: {x: -0.091714256, y: 1.0407414, z: -0.057410456}
    handLeftRot: {x: 0.14384913, y: -0.43910035, z: -0.5039558, w: 0.7297444}
    handRightRot: {x: 0.19585803, y: 0.5114409, z: 0.05230389, w: 0.83506423}
    headRot: {x: 0.011018968, y: -0.061428446, z: -0.021255028, w: 0.9978243}
    legLeftRot: {x: -0.4360894, y: 0.5154428, z: 0.527251, w: 0.51589864}
    legRightRot: {x: -0.03627689, y: -0.706925, z: -0.68612474, w: 0.16785108}
    hipsRot: {x: -0.69873786, y: 0.70662713, z: -0.08410442, w: 0.07328001}
  - handLeftPos: {x: -0.81826144, y: 1.1633034, z: 0.049337007}
    handRightPos: {x: 0.54131776, y: 0.92097956, z: 0.020514438}
    headPos: {x: -0.070705436, y: 1.6859728, z: 0.000111933456}
    legLeftPos: {x: -0.3726694, y: 0.1595462, z: -0.21922228}
    legRightPos: {x: 0.15926836, y: 0.19811946, z: -0.121624954}
    hipsPos: {x: -0.091594696, y: 1.0406373, z: -0.057171326}
    handLeftRot: {x: 0.14733934, y: -0.44079754, z: -0.5006096, w: 0.73032784}
    handRightRot: {x: 0.19717212, y: 0.51255935, z: 0.05219687, w: 0.83407533}
    headRot: {x: 0.010051068, y: -0.06120516, z: -0.0207146, w: 0.9978596}
    legLeftRot: {x: -0.43596113, y: 0.5153402, z: 0.5272113, w: 0.51614994}
    legRightRot: {x: -0.03669516, y: -0.7068663, z: -0.686089, w: 0.16815263}
    hipsRot: {x: -0.6989227, y: 0.7065821, z: -0.08323642, w: 0.07294123}
  - handLeftPos: {x: -0.81865484, y: 1.1628869, z: 0.048781607}
    handRightPos: {x: 0.54131, y: 0.920752, z: 0.019737264}
    headPos: {x: -0.07071315, y: 1.6859497, z: -0.00022940578}
    legLeftPos: {x: -0.3726347, y: 0.15952691, z: -0.21919335}
    legRightPos: {x: 0.1592645, y: 0.1981079, z: -0.121646166}
    hipsPos: {x: -0.09158312, y: 1.0406219, z: -0.05707683}
    handLeftRot: {x: 0.14912242, y: -0.44064543, z: -0.5003464, w: 0.730238}
    handRightRot: {x: 0.19741403, y: 0.5132179, z: 0.051739313, w: 0.83364147}
    headRot: {x: 0.009421855, y: -0.06122104, z: -0.02046939, w: 0.99786985}
    legLeftRot: {x: -0.43589506, y: 0.5153691, z: 0.5272397, w: 0.5161479}
    legRightRot: {x: -0.036686197, y: -0.7068157, z: -0.68613183, w: 0.16819286}
    hipsRot: {x: -0.6989937, y: 0.7065866, z: -0.082766466, w: 0.072752774}
  - handLeftPos: {x: -0.8190251, y: 1.1615987, z: 0.047852088}
    handRightPos: {x: 0.5418037, y: 0.919996, z: 0.017857006}
    headPos: {x: -0.07041617, y: 1.6860346, z: -0.0011203594}
    legLeftPos: {x: -0.372627, y: 0.15975063, z: -0.21909693}
    legRightPos: {x: 0.15940335, y: 0.19816574, z: -0.12167702}
    hipsPos: {x: -0.09133242, y: 1.0406026, z: -0.056567714}
    handLeftRot: {x: 0.15170544, y: -0.43888158, z: -0.5001707, w: 0.7308883}
    handRightRot: {x: 0.19767584, y: 0.51508784, z: 0.050330807, w: 0.8325116}
    headRot: {x: 0.0074847206, y: -0.061426997, z: -0.020344285, w: 0.99787617}
    legLeftRot: {x: -0.43534765, y: 0.5153533, z: 0.5271987, w: 0.5166673}
    legRightRot: {x: -0.036943533, y: -0.7068843, z: -0.68596977, w: 0.1685089}
    hipsRot: {x: -0.69920003, y: 0.7065906, z: -0.08154916, w: 0.07210257}
  - handLeftPos: {x: -0.8192411, y: 1.1604879, z: 0.04753389}
    handRightPos: {x: 0.5420274, y: 0.91937894, z: 0.016709564}
    headPos: {x: -0.070173174, y: 1.6862043, z: -0.0014906259}
    legLeftPos: {x: -0.37248042, y: 0.15973519, z: -0.21912393}
    legRightPos: {x: 0.15944964, y: 0.19816574, z: -0.12171945}
    hipsPos: {x: -0.091074005, y: 1.0404637, z: -0.056209017}
    handLeftRot: {x: 0.15256111, y: -0.4399399, z: -0.49556154, w: 0.7332099}
    handRightRot: {x: 0.19759196, y: 0.5160567, z: 0.050367355, w: 0.8319291}
    headRot: {x: 0.0059082783, y: -0.06205666, z: -0.02063693, w: 0.9978418}
    legLeftRot: {x: -0.43533513, y: 0.5149692, z: 0.5273142, w: 0.51694286}
    legRightRot: {x: -0.037414, y: -0.706706, z: -0.68603724, w: 0.16887796}
    hipsRot: {x: -0.69938314, y: 0.7065675, z: -0.08087642, w: 0.07130634}
  - handLeftPos: {x: -0.81945324, y: 1.1595507, z: 0.047105767}
    handRightPos: {x: 0.541634, y: 0.91918224, z: 0.015714474}
    headPos: {x: -0.06965249, y: 1.6863431, z: -0.0013729898}
    legLeftPos: {x: -0.37248042, y: 0.1597429, z: -0.21905643}
    legRightPos: {x: 0.15938407, y: 0.19816189, z: -0.12154589}
    hipsPos: {x: -0.09101229, y: 1.0404599, z: -0.055734616}
    handLeftRot: {x: 0.15415369, y: -0.44246936, z: -0.49267915, w: 0.73329717}
    handRightRot: {x: 0.19722773, y: 0.5174357, z: 0.049335588, w: 0.83122057}
    headRot: {x: 0.0041629816, y: -0.062319845, z: -0.021003002, w: 0.9978266}
    legLeftRot: {x: -0.43521932, y: 0.51480836, z: 0.5272621, w: 0.5172538}
    legRightRot: {x: -0.03731188, y: -0.7066482, z: -0.6860654, w: 0.16902825}
    hipsRot: {x: -0.6995658, y: 0.706531, z: -0.080696516, w: 0.07006942}
  - handLeftPos: {x: -0.8188554, y: 1.1588949, z: 0.04710191}
    handRightPos: {x: 0.54142576, y: 0.9187464, z: 0.01459982}
    headPos: {x: -0.069409505, y: 1.686428, z: -0.0015696941}
    legLeftPos: {x: -0.372519, y: 0.1597429, z: -0.2190275}
    legRightPos: {x: 0.15939179, y: 0.19814646, z: -0.12151889}
    hipsPos: {x: -0.09103543, y: 1.0403132, z: -0.0554087}
    handLeftRot: {x: 0.15282579, y: -0.44272992, z: -0.4890669, w: 0.73583156}
    handRightRot: {x: 0.19687845, y: 0.5182928, z: 0.04721944, w: 0.8308922}
    headRot: {x: 0.0031643596, y: -0.06222497, z: -0.021321611, w: 0.9978294}
    legLeftRot: {x: -0.43513647, y: 0.5145084, z: 0.52736545, w: 0.5175164}
    legRightRot: {x: -0.037174605, y: -0.7065163, z: -0.6862414, w: 0.16889481}
    hipsRot: {x: -0.6996815, y: 0.70655906, z: -0.0804135, w: 0.06894757}
  - handLeftPos: {x: -0.81858927, y: 1.1590145, z: 0.047366112}
    handRightPos: {x: 0.54129076, y: 0.91887754, z: 0.014698171}
    headPos: {x: -0.06944807, y: 1.6863855, z: -0.0015099115}
    legLeftPos: {x: -0.37246886, y: 0.1597159, z: -0.21904872}
    legRightPos: {x: 0.15939565, y: 0.19817732, z: -0.12154974}
    hipsPos: {x: -0.09101615, y: 1.040321, z: -0.055481985}
    handLeftRot: {x: 0.1526455, y: -0.44158694, z: -0.49066025, w: 0.735495}
    handRightRot: {x: 0.19693409, y: 0.5177542, z: 0.047461733, w: 0.8312009}
    headRot: {x: 0.0034262845, y: -0.062219836, z: -0.021504534, w: 0.9978249}
    legLeftRot: {x: -0.43507904, y: 0.5146237, z: 0.52745926, w: 0.5173544}
    legRightRot: {x: -0.03713934, y: -0.7065503, z: -0.6861815, w: 0.16900381}
    hipsRot: {x: -0.69974536, y: 0.7065169, z: -0.08029672, w: 0.06886728}
  - handLeftPos: {x: -0.81837714, y: 1.1585633, z: 0.047454823}
    handRightPos: {x: 0.54082793, y: 0.91848797, z: 0.014059848}
    headPos: {x: -0.069421075, y: 1.686239, z: -0.0017066154}
    legLeftPos: {x: -0.37249586, y: 0.15967734, z: -0.21908729}
    legRightPos: {x: 0.15935323, y: 0.19814646, z: -0.12157095}
    hipsPos: {x: -0.09110872, y: 1.0402516, z: -0.055352777}
    handLeftRot: {x: 0.15274894, y: -0.4410699, z: -0.4908988, w: 0.7356246}
    handRightRot: {x: 0.19674587, y: 0.5177633, z: 0.04712341, w: 0.8312591}
    headRot: {x: 0.0031654653, y: -0.062121205, z: -0.021736577, w: 0.9978269}
    legLeftRot: {x: -0.43496585, y: 0.51453024, z: 0.52765, w: 0.5173481}
    legRightRot: {x: -0.03721931, y: -0.706505, z: -0.6862125, w: 0.16904989}
    hipsRot: {x: -0.69971037, y: 0.70660704, z: -0.080134355, w: 0.06848628}
  - handLeftPos: {x: -0.8179876, y: 1.1583742, z: 0.047720946}
    handRightPos: {x: 0.5407238, y: 0.9183954, z: 0.013681869}
    headPos: {x: -0.06930537, y: 1.6862274, z: -0.001876321}
    legLeftPos: {x: -0.37251514, y: 0.15969276, z: -0.21907765}
    legRightPos: {x: 0.15935707, y: 0.1981426, z: -0.12157674}
    hipsPos: {x: -0.09118971, y: 1.0402285, z: -0.055163786}
    handLeftRot: {x: 0.15229967, y: -0.44058308, z: -0.49159, w: 0.73554784}
    handRightRot: {x: 0.1964354, y: 0.5175178, z: 0.046892006, w: 0.83149844}
    headRot: {x: 0.0029139214, y: -0.061881166, z: -0.021936255, w: 0.9978382}
    legLeftRot: {x: -0.43492427, y: 0.5144182, z: 0.5277508, w: 0.5173916}
    legRightRot: {x: -0.03728891, y: -0.70649993, z: -0.6862147, w: 0.16904691}
    hipsRot: {x: -0.69969755, y: 0.70666033, z: -0.08002222, w: 0.06819817}
  - handLeftPos: {x: -0.8177832, y: 1.1583666, z: 0.047896437}
    handRightPos: {x: 0.5405155, y: 0.9183645, z: 0.013367528}
    headPos: {x: -0.06919737, y: 1.6861888, z: -0.001961174}
    legLeftPos: {x: -0.3725537, y: 0.15975063, z: -0.21911621}
    legRightPos: {x: 0.15934165, y: 0.19817732, z: -0.12160181}
    hipsPos: {x: -0.091328554, y: 1.0402285, z: -0.055055793}
    handLeftRot: {x: 0.15174928, y: -0.44069162, z: -0.49168897, w: 0.73553044}
    handRightRot: {x: 0.19610144, y: 0.51734763, z: 0.046691615, w: 0.8316944}
    headRot: {x: 0.0026925663, y: -0.06166815, z: -0.022082206, w: 0.99784875}
    legLeftRot: {x: -0.43486992, y: 0.51431835, z: 0.5278049, w: 0.5174813}
    legRightRot: {x: -0.03716565, y: -0.7065177, z: -0.6862112, w: 0.16901375}
    hipsRot: {x: -0.6996966, y: 0.7066951, z: -0.07991916, w: 0.06796859}
  - handLeftPos: {x: -0.8171121, y: 1.1581428, z: 0.048467264}
    handRightPos: {x: 0.54041135, y: 0.9181794, z: 0.012584569}
    headPos: {x: -0.06889653, y: 1.686077, z: -0.0021173803}
    legLeftPos: {x: -0.37252283, y: 0.15978147, z: -0.21914321}
    legRightPos: {x: 0.15930694, y: 0.19816189, z: -0.12161338}
    hipsPos: {x: -0.0914057, y: 1.040105, z: -0.054673955}
    handLeftRot: {x: 0.15134807, y: -0.44054368, z: -0.49187398, w: 0.735578}
    handRightRot: {x: 0.19566405, y: 0.5171441, z: 0.04631213, w: 0.8319452}
    headRot: {x: 0.0023339004, y: -0.061038047, z: -0.02225979, w: 0.9978845}
    legLeftRot: {x: -0.4350294, y: 0.5139209, z: 0.5278568, w: 0.51768917}
    legRightRot: {x: -0.03698042, y: -0.7064815, z: -0.6862839, w: 0.16891053}
    hipsRot: {x: -0.69962066, y: 0.70687133, z: -0.07941603, w: 0.067505516}
  - handLeftPos: {x: -0.8159743, y: 1.1576067, z: 0.049799837}
    handRightPos: {x: 0.54032266, y: 0.91753143, z: 0.011577908}
    headPos: {x: -0.06853398, y: 1.6860499, z: -0.0023102278}
    legLeftPos: {x: -0.37240714, y: 0.15975063, z: -0.21894266}
    legRightPos: {x: 0.15944193, y: 0.19806162, z: -0.12148996}
    hipsPos: {x: -0.09144041, y: 1.040078, z: -0.05374443}
    handLeftRot: {x: 0.14995968, y: -0.43973684, z: -0.4916851, w: 0.73647094}
    handRightRot: {x: 0.19589551, y: 0.51686627, z: 0.04631543, w: 0.8320632}
    headRot: {x: 0.0016407822, y: -0.060100153, z: -0.02264376, w: 0.99793416}
    legLeftRot: {x: -0.43473426, y: 0.5138318, z: 0.5282104, w: 0.517665}
    legRightRot: {x: -0.036690645, y: -0.70638484, z: -0.6864397, w: 0.16874471}
    hipsRot: {x: -0.6994391, y: 0.7071431, z: -0.07930884, w: 0.06666073}
  - handLeftPos: {x: -0.81543434, y: 1.1576298, z: 0.050825782}
    handRightPos: {x: 0.54020697, y: 0.9173155, z: 0.010912585}
    headPos: {x: -0.06817914, y: 1.6859459, z: -0.0020865256}
    legLeftPos: {x: -0.37246498, y: 0.15983161, z: -0.21890794}
    legRightPos: {x: 0.15935707, y: 0.19814646, z: -0.12152274}
    hipsPos: {x: -0.09174896, y: 1.0401667, z: -0.05343395}
    handLeftRot: {x: 0.14828043, y: -0.43934986, z: -0.4913899, w: 0.73723847}
    handRightRot: {x: 0.19656217, y: 0.5165636, z: 0.045822732, w: 0.83212113}
    headRot: {x: 0.001501355, y: -0.059464857, z: -0.022841232, w: 0.99796796}
    legLeftRot: {x: -0.43469977, y: 0.51361984, z: 0.52849203, w: 0.51761675}
    legRightRot: {x: -0.03667412, y: -0.7063374, z: -0.68645126, w: 0.16889995}
    hipsRot: {x: -0.6994342, y: 0.70720446, z: -0.07920519, w: 0.066182494}
  - handLeftPos: {x: -0.81510645, y: 1.1579192, z: 0.05168588}
    handRightPos: {x: 0.5401684, y: 0.9169298, z: 0.010168196}
    headPos: {x: -0.067843586, y: 1.6858803, z: -0.0019380337}
    legLeftPos: {x: -0.37253827, y: 0.15982005, z: -0.21870352}
    legRightPos: {x: 0.15922594, y: 0.1982236, z: -0.12124697}
    hipsPos: {x: -0.0918801, y: 1.0402014, z: -0.05296533}
    handLeftRot: {x: 0.14615282, y: -0.4402448, z: -0.4905395, w: 0.7376957}
    handRightRot: {x: 0.1973962, y: 0.51635176, z: 0.045766357, w: 0.8320583}
    headRot: {x: 0.0015944247, y: -0.059144296, z: -0.022909041, w: 0.9979853}
    legLeftRot: {x: -0.43434444, y: 0.5136313, z: 0.5287672, w: 0.51762265}
    legRightRot: {x: -0.036818847, y: -0.7062144, z: -0.6864728, w: 0.16929485}
    hipsRot: {x: -0.6994276, y: 0.7072615, z: -0.079083696, w: 0.06578783}
  - handLeftPos: {x: -0.81490976, y: 1.1578265, z: 0.051824726}
    handRightPos: {x: 0.54005265, y: 0.9165171, z: 0.008640847}
    headPos: {x: -0.067843586, y: 1.6855718, z: -0.0025493589}
    legLeftPos: {x: -0.37253055, y: 0.15973905, z: -0.21885587}
    legRightPos: {x: 0.15913723, y: 0.1982506, z: -0.121331826}
    hipsPos: {x: -0.092161655, y: 1.0401899, z: -0.05292869}
    handLeftRot: {x: 0.14453936, y: -0.44118688, z: -0.4890173, w: 0.738461}
    handRightRot: {x: 0.1974379, y: 0.51715624, z: 0.045931052, w: 0.8315396}
    headRot: {x: 0.0016323486, y: -0.059003733, z: -0.023230499, w: 0.9979861}
    legLeftRot: {x: -0.4344861, y: 0.5133595, z: 0.5290513, w: 0.5174831}
    legRightRot: {x: -0.036613457, y: -0.7060911, z: -0.6865459, w: 0.16955712}
    hipsRot: {x: -0.6994698, y: 0.707262, z: -0.07880032, w: 0.06567408}
  - handLeftPos: {x: -0.81509876, y: 1.1579539, z: 0.051556673}
    handRightPos: {x: 0.5404422, y: 0.9165672, z: 0.008286009}
    headPos: {x: -0.0678243, y: 1.68551, z: -0.0024529353}
    legLeftPos: {x: -0.37246886, y: 0.15976991, z: -0.2189658}
    legRightPos: {x: 0.1592838, y: 0.19823132, z: -0.12156324}
    hipsPos: {x: -0.092134655, y: 1.0402052, z: -0.053088754}
    handLeftRot: {x: 0.14460924, y: -0.44140697, z: -0.48907784, w: 0.73827565}
    handRightRot: {x: 0.19747476, y: 0.5178611, z: 0.04576839, w: 0.831101}
    headRot: {x: 0.0017069919, y: -0.059083868, z: -0.023368279, w: 0.99797803}
    legLeftRot: {x: -0.43458664, y: 0.5133004, z: 0.5288903, w: 0.5176219}
    legRightRot: {x: -0.036705844, y: -0.7061274, z: -0.68651074, w: 0.16952816}
    hipsRot: {x: -0.6994478, y: 0.70728016, z: -0.07876247, w: 0.065757535}
  - handLeftPos: {x: -0.8151913, y: 1.1579577, z: 0.0518633}
    handRightPos: {x: 0.5406197, y: 0.9162625, z: 0.007915743}
    headPos: {x: -0.06790529, y: 1.6854638, z: -0.0024876478}
    legLeftPos: {x: -0.37243798, y: 0.15975833, z: -0.21895808}
    legRightPos: {x: 0.15934937, y: 0.19815804, z: -0.12154203}
    hipsPos: {x: -0.09223879, y: 1.0401514, z: -0.052996185}
    handLeftRot: {x: 0.14444272, y: -0.44158474, z: -0.48900095, w: 0.7382529}
    handRightRot: {x: 0.19782932, y: 0.5183874, z: 0.04569475, w: 0.8306925}
    headRot: {x: 0.0017171749, y: -0.058968775, z: -0.023468742, w: 0.9979825}
    legLeftRot: {x: -0.43448442, y: 0.5132816, z: 0.52897674, w: 0.51763797}
    legRightRot: {x: -0.036790743, y: -0.7060733, z: -0.686509, w: 0.16974169}
    hipsRot: {x: -0.69944, y: 0.7073005, z: -0.07862706, w: 0.0657834}
  - handLeftPos: {x: -0.81515664, y: 1.1580657, z: 0.052162215}
    handRightPos: {x: 0.5409822, y: 0.91623163, z: 0.007557046}
    headPos: {x: -0.06785901, y: 1.6855525, z: -0.0024683631}
    legLeftPos: {x: -0.37242642, y: 0.15978919, z: -0.21893494}
    legRightPos: {x: 0.15938407, y: 0.1981966, z: -0.12155938}
    hipsPos: {x: -0.09231979, y: 1.0401243, z: -0.05286698}
    handLeftRot: {x: 0.14519113, y: -0.44168916, z: -0.48927128, w: 0.7378644}
    handRightRot: {x: 0.19836694, y: 0.5189704, z: 0.04561699, w: 0.8302044}
    headRot: {x: 0.0017943188, y: -0.05875334, z: -0.02358355, w: 0.99799234}
    legLeftRot: {x: -0.4344195, y: 0.51328677, z: 0.5288752, w: 0.51779103}
    legRightRot: {x: -0.036964916, y: -0.70592064, z: -0.6865886, w: 0.17001659}
    hipsRot: {x: -0.6993827, y: 0.7073819, z: -0.07843276, w: 0.065749414}
  - handLeftPos: {x: -0.8151759, y: 1.1580619, z: 0.052389774}
    handRightPos: {x: 0.5410246, y: 0.91606194, z: 0.0071327826}
    headPos: {x: -0.06775487, y: 1.6855332, z: -0.0023507264}
    legLeftPos: {x: -0.3723647, y: 0.15980847, z: -0.2189735}
    legRightPos: {x: 0.15940721, y: 0.19820046, z: -0.12160374}
    hipsPos: {x: -0.0924355, y: 1.0401397, z: -0.05282262}
    handLeftRot: {x: 0.14511912, y: -0.4418557, z: -0.4887949, w: 0.7380945}
    handRightRot: {x: 0.19881234, y: 0.51948977, z: 0.0457368, w: 0.82976633}
    headRot: {x: 0.0018260215, y: -0.05876054, z: -0.023586072, w: 0.99799174}
    legLeftRot: {x: -0.43441072, y: 0.5131921, z: 0.5290652, w: 0.51769805}
    legRightRot: {x: -0.037035137, y: -0.7058599, z: -0.6866282, w: 0.17009374}
    hipsRot: {x: -0.69937193, y: 0.70740694, z: -0.07847912, w: 0.06553918}
  - handLeftPos: {x: -0.81516045, y: 1.1581699, z: 0.05286996}
    handRightPos: {x: 0.5411326, y: 0.915846, z: 0.006118407}
    headPos: {x: -0.06775487, y: 1.6854945, z: -0.0022890153}
    legLeftPos: {x: -0.37238398, y: 0.15981233, z: -0.21892144}
    legRightPos: {x: 0.15935323, y: 0.19820046, z: -0.12155746}
    hipsPos: {x: -0.09272091, y: 1.0401821, z: -0.052587345}
    handLeftRot: {x: 0.14467113, y: -0.4417718, z: -0.48821107, w: 0.7386189}
    handRightRot: {x: 0.19922923, y: 0.5207999, z: 0.045484256, w: 0.8288585}
    headRot: {x: 0.0018599038, y: -0.058620967, z: -0.023316141, w: 0.9980063}
    legLeftRot: {x: -0.43450522, y: 0.5129664, z: 0.52916276, w: 0.5177429}
    legRightRot: {x: -0.036722966, y: -0.7058571, z: -0.68664485, w: 0.17010607}
    hipsRot: {x: -0.69921875, y: 0.7075651, z: -0.078800276, w: 0.065079235}
  - handLeftPos: {x: -0.81534946, y: 1.1582624, z: 0.05345043}
    handRightPos: {x: 0.54095906, y: 0.9157688, z: 0.0049536116}
    headPos: {x: -0.06788987, y: 1.6854522, z: -0.0020556704}
    legLeftPos: {x: -0.3723763, y: 0.15982391, z: -0.21890216}
    legRightPos: {x: 0.15921052, y: 0.1982506, z: -0.12153817}
    hipsPos: {x: -0.09316832, y: 1.0403905, z: -0.052425355}
    handLeftRot: {x: 0.14547014, y: -0.44121182, z: -0.48805323, w: 0.73890096}
    handRightRot: {x: 0.19972864, y: 0.521828, z: 0.044796478, w: 0.8281288}
    headRot: {x: 0.002031473, y: -0.058253553, z: -0.022467852, w: 0.99804693}
    legLeftRot: {x: -0.43453234, y: 0.51274705, z: 0.52934605, w: 0.5177501}
    legRightRot: {x: -0.036512315, y: -0.70557445, z: -0.6868556, w: 0.17047241}
    hipsRot: {x: -0.6989833, y: 0.7077538, z: -0.07963989, w: 0.06453251}
  - handLeftPos: {x: -0.8152839, y: 1.1582817, z: 0.054418523}
    handRightPos: {x: 0.5406467, y: 0.91561455, z: 0.0047819777}
    headPos: {x: -0.06771245, y: 1.6853249, z: -0.0013459935}
    legLeftPos: {x: -0.37234157, y: 0.15976605, z: -0.21874209}
    legRightPos: {x: 0.15903309, y: 0.19830845, z: -0.121333756}
    hipsPos: {x: -0.09334574, y: 1.0403905, z: -0.052375216}
    handLeftRot: {x: 0.14601678, y: -0.43903568, z: -0.48973566, w: 0.73897624}
    handRightRot: {x: 0.20025127, y: 0.52145433, z: 0.04525114, w: 0.8282132}
    headRot: {x: 0.0030264298, y: -0.05851953, z: -0.021856733, w: 0.9980424}
    legLeftRot: {x: -0.4346645, y: 0.5126425, z: 0.5295501, w: 0.51753396}
    legRightRot: {x: -0.03665325, y: -0.7053753, z: -0.68691546, w: 0.17102438}
    hipsRot: {x: -0.69883895, y: 0.70785165, z: -0.07998392, w: 0.06459698}
  - handLeftPos: {x: -0.81528, y: 1.1584013, z: 0.05507999}
    handRightPos: {x: 0.54054636, y: 0.9152983, z: 0.0046894117}
    headPos: {x: -0.06792072, y: 1.6850511, z: -0.0009660847}
    legLeftPos: {x: -0.3723493, y: 0.1597082, z: -0.21886358}
    legRightPos: {x: 0.15905239, y: 0.19830845, z: -0.12138197}
    hipsPos: {x: -0.093438305, y: 1.0403441, z: -0.052645203}
    handLeftRot: {x: 0.14641112, y: -0.43773344, z: -0.49176696, w: 0.73832136}
    handRightRot: {x: 0.20028788, y: 0.5210651, z: 0.04608579, w: 0.82840335}
    headRot: {x: 0.0041316287, y: -0.058854755, z: -0.021487994, w: 0.9980267}
    legLeftRot: {x: -0.43471083, y: 0.51267517, z: 0.5294545, w: 0.5175603}
    legRightRot: {x: -0.036714897, y: -0.7052651, z: -0.6869616, w: 0.17128032}
    hipsRot: {x: -0.6988766, y: 0.7078254, z: -0.07993792, w: 0.064533025}
  - handLeftPos: {x: -0.81540734, y: 1.158706, z: 0.054734793}
    handRightPos: {x: 0.54060423, y: 0.91536385, z: 0.004700982}
    headPos: {x: -0.06821385, y: 1.6851089, z: -0.0013537068}
    legLeftPos: {x: -0.37231457, y: 0.15970434, z: -0.21892916}
    legRightPos: {x: 0.15915266, y: 0.19829303, z: -0.12155553}
    hipsPos: {x: -0.093395874, y: 1.0403712, z: -0.05283419}
    handLeftRot: {x: 0.14574428, y: -0.43826208, z: -0.49122742, w: 0.7384989}
    handRightRot: {x: 0.20026754, y: 0.5209357, z: 0.04599168, w: 0.8284949}
    headRot: {x: 0.004719551, y: -0.058943857, z: -0.021600729, w: 0.9980164}
    legLeftRot: {x: -0.43472666, y: 0.51275235, z: 0.52955836, w: 0.5173644}
    legRightRot: {x: -0.036716737, y: -0.7052816, z: -0.6869464, w: 0.17127249}
    hipsRot: {x: -0.69888663, y: 0.70783657, z: -0.079812765, w: 0.06445768}
  - handLeftPos: {x: -0.8155423, y: 1.1590029, z: 0.054844715}
    handRightPos: {x: 0.5402571, y: 0.9154603, z: 0.004519706}
    headPos: {x: -0.068183, y: 1.6849238, z: -0.001153146}
    legLeftPos: {x: -0.3723763, y: 0.15971977, z: -0.21893302}
    legRightPos: {x: 0.15913723, y: 0.19827375, z: -0.1215806}
    hipsPos: {x: -0.09350387, y: 1.0403634, z: -0.05299811}
    handLeftRot: {x: 0.14566845, y: -0.43799257, z: -0.4915341, w: 0.73846966}
    handRightRot: {x: 0.20037036, y: 0.5206734, z: 0.04586929, w: 0.82864165}
    headRot: {x: 0.005799597, y: -0.059174515, z: -0.021658694, w: 0.99799585}
    legLeftRot: {x: -0.43477285, y: 0.5127457, z: 0.5296229, w: 0.5172661}
    legRightRot: {x: -0.036602326, y: -0.70524144, z: -0.6870122, w: 0.17119884}
    hipsRot: {x: -0.69893295, y: 0.7078082, z: -0.079635814, w: 0.064486735}
  - handLeftPos: {x: -0.8155037, y: 1.1592691, z: 0.05508963}
    handRightPos: {x: 0.5399485, y: 0.91538316, z: 0.004500422}
    headPos: {x: -0.06824856, y: 1.6847271, z: -0.0009699412}
    legLeftPos: {x: -0.37235314, y: 0.15969276, z: -0.21893494}
    legRightPos: {x: 0.1591758, y: 0.19831617, z: -0.12157481}
    hipsPos: {x: -0.093573295, y: 1.0403712, z: -0.05307332}
    handLeftRot: {x: 0.14533979, y: -0.43772542, z: -0.4916497, w: 0.7386159}
    handRightRot: {x: 0.20057124, y: 0.52015924, z: 0.04585102, w: 0.82891697}
    headRot: {x: 0.0070361258, y: -0.059320603, z: -0.021762308, w: 0.99797696}
    legLeftRot: {x: -0.4349655, y: 0.51274645, z: 0.52956665, w: 0.51716095}
    legRightRot: {x: -0.03647252, y: -0.7052509, z: -0.6870119, w: 0.17118877}
    hipsRot: {x: -0.69891506, y: 0.70785713, z: -0.07924683, w: 0.06462172}
  folderPath: Assets\YetiFam\ik animations\anims
