%YAML 1.1
%TAG !u! tag:unity3d.com,2011:
--- !u!1001 &100100000
Prefab:
  m_ObjectHideFlags: 1
  serializedVersion: 2
  m_Modification:
    m_TransformParent: {fileID: 0}
    m_Modifications: []
    m_RemovedComponents: []
  m_ParentPrefab: {fileID: 0}
  m_RootGameObject: {fileID: 1679376684878980}
  m_IsPrefabParent: 1
--- !u!1 &1679376684878980
GameObject:
  m_ObjectHideFlags: 0
  m_PrefabParentObject: {fileID: 0}
  m_PrefabInternal: {fileID: 100100000}
  serializedVersion: 5
  m_Component:
  - component: {fileID: 4239988516051430}
  - component: {fileID: 114594794236482394}
  m_Layer: 0
  m_Name: Run cycle (3) nohipsxz
  m_TagString: Untagged
  m_Icon: {fileID: 0}
  m_NavMeshLayer: 0
  m_StaticEditorFlags: 0
  m_IsActive: 1
--- !u!4 &4239988516051430
Transform:
  m_ObjectHideFlags: 1
  m_PrefabParentObject: {fileID: 0}
  m_PrefabInternal: {fileID: 100100000}
  m_GameObject: {fileID: 1679376684878980}
  m_LocalRotation: {x: -0, y: -0, z: -0, w: 1}
  m_LocalPosition: {x: -39.70665, y: 63.566563, z: 35.30078}
  m_LocalScale: {x: 1, y: 1, z: 1}
  m_Children: []
  m_Father: {fileID: 0}
  m_RootOrder: 0
  m_LocalEulerAnglesHint: {x: 0, y: 0, z: 0}
--- !u!114 &114594794236482394
MonoBehaviour:
  m_ObjectHideFlags: 1
  m_PrefabParentObject: {fileID: 0}
  m_PrefabInternal: {fileID: 100100000}
  m_GameObject: {fileID: 1679376684878980}
  m_Enabled: 1
  m_EditorHideFlags: 0
  m_Script: {fileID: 11500000, guid: 325b693f5f6e20d4dad987693f511798, type: 3}
  m_Name: 
  m_EditorClassIdentifier: 
  data:
  - handLeftPos: {x: -0.3125798, y: 0.71819705, z: -0.1023038}
    handRightPos: {x: 0.20428187, y: 0.9612807, z: 0.54861987}
    headPos: {x: 0.050887085, y: 1.4748632, z: 0.22141457}
    legLeftPos: {x: -0.13810301, y: 0.14541437, z: 0.2263999}
    legRightPos: {x: 0.17615622, y: 0.057213858, z: -0.145747}
    hipsPos: {x: -0.002173098, y: 0.92094487, z: 0.005485742}
    handLeftRot: {x: 0.42585596, y: -0.29420954, z: 0.010633789, w: 0.855555}
    handRightRot: {x: -0.11035163, y: -0.16693771, z: 0.07388663, w: 0.97698265}
    headRot: {x: 0.0048106145, y: -0.0885885, z: 0.012906759, w: 0.9959731}
    legLeftRot: {x: 0.31008458, y: -0.66510457, z: -0.6685874, w: -0.12030985}
    legRightRot: {x: -0.035061248, y: -0.5771491, z: -0.8124094, w: 0.07523772}
    hipsRot: {x: -0.70524013, y: 0.68608844, z: 0.08063071, w: 0.15942927}
  - handLeftPos: {x: -0.3115192, y: 0.7176031, z: -0.14132452}
    handRightPos: {x: 0.19099855, y: 0.98656297, z: 0.5598224}
    headPos: {x: 0.042309247, y: 1.4742153, z: 0.22094789}
    legLeftPos: {x: -0.14893712, y: 0.15482146, z: 0.25259814}
    legRightPos: {x: 0.17828138, y: 0.056619886, z: -0.16716653}
    hipsPos: {x: -0.002173098, y: 0.9162008, z: 0.005485742}
    handLeftRot: {x: 0.4818532, y: -0.2870358, z: -0.014668261, w: 0.82777584}
    handRightRot: {x: -0.13541171, y: -0.18471211, z: 0.09174898, w: 0.96908575}
    headRot: {x: 0.007506536, y: -0.08815423, z: 0.013162465, w: 0.9959916}
    legLeftRot: {x: 0.30392027, y: -0.6811981, z: -0.6574249, w: -0.10674399}
    legRightRot: {x: -0.03803429, y: -0.56827307, z: -0.8183651, w: 0.07679574}
    hipsRot: {x: -0.69690347, y: 0.69067276, z: 0.0972077, w: 0.16687533}
  - handLeftPos: {x: -0.31171975, y: 0.7247963, z: -0.14814746}
    handRightPos: {x: 0.18381694, y: 0.9964946, z: 0.557971}
    headPos: {x: 0.03888813, y: 1.4776325, z: 0.20969331}
    legLeftPos: {x: -0.15745322, y: 0.15559284, z: 0.2569314}
    legRightPos: {x: 0.17910676, y: 0.05726014, z: -0.1809243}
    hipsPos: {x: -0.002173098, y: 0.91669446, z: 0.005485742}
    handLeftRot: {x: 0.4934795, y: -0.27059892, z: -0.03379386, w: 0.82590085}
    handRightRot: {x: -0.130106, y: -0.18728793, z: 0.0920483, w: 0.96928984}
    headRot: {x: 0.010094077, y: -0.08739742, z: 0.012664664, w: 0.9960419}
    legLeftRot: {x: 0.28910446, y: -0.690365, z: -0.65640765, w: -0.09457236}
    legRightRot: {x: -0.048437327, y: -0.56955266, z: -0.8163235, w: 0.08294239}
    hipsRot: {x: -0.6909926, y: 0.69448435, z: 0.09961456, w: 0.17406245}
  - handLeftPos: {x: -0.30648977, y: 0.73657924, z: -0.16468024}
    handRightPos: {x: 0.17544737, y: 1.015436, z: 0.5578881}
    headPos: {x: 0.029774174, y: 1.484251, z: 0.20544875}
    legLeftPos: {x: -0.16804825, y: 0.15559284, z: 0.26322594}
    legRightPos: {x: 0.18295209, y: 0.059296604, z: -0.20649004}
    hipsPos: {x: -0.002173098, y: 0.92169696, z: 0.005485742}
    handLeftRot: {x: 0.49498588, y: -0.25686353, z: -0.044295967, w: 0.8288836}
    handRightRot: {x: -0.13481858, y: -0.18999836, z: 0.0967635, w: 0.9676577}
    headRot: {x: 0.019503893, y: -0.08591779, z: 0.01280795, w: 0.99602896}
    legLeftRot: {x: 0.2671035, y: -0.703219, z: -0.65371895, w: -0.082403846}
    legRightRot: {x: -0.058365233, y: -0.5700467, z: -0.8142629, w: 0.09282277}
    hipsRot: {x: -0.68909615, y: 0.6980682, z: 0.08526268, w: 0.1748643}
  - handLeftPos: {x: -0.3052401, y: 0.75205326, z: -0.16472459}
    handRightPos: {x: 0.16985479, y: 1.0301503, z: 0.5482477}
    headPos: {x: 0.011588702, y: 1.5004463, z: 0.2077668}
    legLeftPos: {x: -0.18068358, y: 0.1521023, z: 0.2589197}
    legRightPos: {x: 0.18751869, y: 0.06331553, z: -0.23492914}
    hipsPos: {x: -0.002173098, y: 0.92941856, z: 0.005485742}
    handLeftRot: {x: 0.47223946, y: -0.25489607, z: -0.01660089, w: 0.8436482}
    handRightRot: {x: -0.12846056, y: -0.1812766, z: 0.10080023, w: 0.96978146}
    headRot: {x: 0.032391593, y: -0.0814481, z: 0.015899269, w: 0.9960242}
    legLeftRot: {x: 0.2661901, y: -0.70631593, z: -0.64964545, w: -0.09067342}
    legRightRot: {x: -0.051140312, y: -0.57774645, z: -0.80854094, w: 0.09927407}
    hipsRot: {x: -0.6919923, y: 0.69763535, z: 0.06794569, w: 0.17272826}
  - handLeftPos: {x: -0.30208126, y: 0.75925803, z: -0.16320688}
    handRightPos: {x: 0.1675175, y: 1.0367804, z: 0.54239863}
    headPos: {x: 0.006293118, y: 1.5062047, z: 0.20367074}
    legLeftPos: {x: -0.1858866, y: 0.14624748, z: 0.25009504}
    legRightPos: {x: 0.19099377, y: 0.067203335, z: -0.25026047}
    hipsPos: {x: -0.002173098, y: 0.93256193, z: 0.005485742}
    handLeftRot: {x: 0.45713183, y: -0.25365865, z: -0.003003773, w: 0.85245454}
    handRightRot: {x: -0.12595764, y: -0.17737803, z: 0.10196605, w: 0.9707083}
    headRot: {x: 0.03509156, y: -0.079014815, z: 0.01637871, w: 0.996121}
    legLeftRot: {x: 0.25791284, y: -0.70714676, z: -0.6519269, w: -0.09173827}
    legRightRot: {x: -0.047107983, y: -0.57920694, z: -0.8066649, w: 0.107665405}
    hipsRot: {x: -0.69199055, y: 0.69738084, z: 0.06336072, w: 0.17548354}
  - handLeftPos: {x: -0.29726008, y: 0.7786816, z: -0.15867698}
    handRightPos: {x: 0.16369522, y: 1.0506537, z: 0.5191027}
    headPos: {x: -0.0068474934, y: 1.5185392, z: 0.19140756}
    legLeftPos: {x: -0.20078984, y: 0.12796557, z: 0.22518688}
    legRightPos: {x: 0.20349792, y: 0.084166154, z: -0.2934332}
    hipsPos: {x: -0.002173098, y: 0.94252056, z: 0.005485742}
    handLeftRot: {x: 0.42055374, y: -0.24285084, z: 0.01498037, w: 0.874033}
    handRightRot: {x: -0.11868205, y: -0.16618407, z: 0.10603106, w: 0.9731675}
    headRot: {x: 0.037133634, y: -0.07342094, z: 0.019263832, w: 0.9964233}
    legLeftRot: {x: 0.24386638, y: -0.70888484, z: -0.6517714, w: -0.11491521}
    legRightRot: {x: -0.023943804, y: -0.56575036, z: -0.81519145, w: 0.1217217}
    hipsRot: {x: -0.6902846, y: 0.6994854, z: 0.049762014, w: 0.17818809}
  - handLeftPos: {x: -0.2913088, y: 0.78741753, z: -0.13134283}
    handRightPos: {x: 0.1660518, y: 1.0500405, z: 0.49449542}
    headPos: {x: -0.011024572, y: 1.5231521, z: 0.18418357}
    legLeftPos: {x: -0.20266822, y: 0.10690282, z: 0.19654721}
    legRightPos: {x: 0.21718231, y: 0.10649399, z: -0.31057346}
    hipsPos: {x: -0.002173098, y: 0.950894, z: 0.005485742}
    handLeftRot: {x: 0.3720831, y: -0.22307514, z: -0.008179622, w: 0.9009577}
    handRightRot: {x: -0.11485844, y: -0.17065331, z: 0.10198294, w: 0.97328544}
    headRot: {x: 0.04106162, y: -0.07145063, z: 0.03256358, w: 0.99606645}
    legLeftRot: {x: 0.22129035, y: -0.7061421, z: -0.6618571, w: -0.11974668}
    legRightRot: {x: -0.0027086474, y: -0.5400704, z: -0.8337234, w: 0.11498568}
    hipsRot: {x: -0.68953174, y: 0.70160896, z: 0.038212482, w: 0.17558667}
  - handLeftPos: {x: -0.287097, y: 0.7925203, z: -0.10294026}
    handRightPos: {x: 0.16789538, y: 1.0434682, z: 0.46748143}
    headPos: {x: -0.01533664, y: 1.5268509, z: 0.17817253}
    legLeftPos: {x: -0.19390914, y: 0.084374435, z: 0.1676915}
    legRightPos: {x: 0.23181167, y: 0.124721885, z: -0.31901443}
    hipsPos: {x: -0.002173098, y: 0.9581219, z: 0.005485742}
    handLeftRot: {x: 0.325306, y: -0.22255096, z: -0.021198804, w: 0.9188023}
    handRightRot: {x: -0.10891333, y: -0.18217501, z: 0.1043307, w: 0.9716302}
    headRot: {x: 0.05202155, y: -0.07108186, z: 0.04249078, w: 0.99520636}
    legLeftRot: {x: 0.20245346, y: -0.7130286, z: -0.66352147, w: -0.1016969}
    legRightRot: {x: 0.020982128, y: -0.5199931, z: -0.8475268, w: 0.10423684}
    hipsRot: {x: -0.69996583, y: 0.69414645, z: 0.041435447, w: 0.16276295}
  - handLeftPos: {x: -0.28821933, y: 0.7892419, z: -0.062259108}
    handRightPos: {x: 0.1692877, y: 1.0262624, z: 0.43974236}
    headPos: {x: -0.022576116, y: 1.5273561, z: 0.17690364}
    legLeftPos: {x: -0.1761904, y: 0.061201934, z: 0.13749555}
    legRightPos: {x: 0.2439726, y: 0.1459852, z: -0.32878014}
    hipsPos: {x: -0.002173098, y: 0.96167797, z: 0.005485742}
    handLeftRot: {x: 0.2738731, y: -0.2396094, z: 0.0014287963, w: 0.9314391}
    handRightRot: {x: -0.09474765, y: -0.1933153, z: 0.12038337, w: 0.9691027}
    headRot: {x: 0.05690608, y: -0.07049712, z: 0.039961245, w: 0.9950854}
    legLeftRot: {x: 0.18940806, y: -0.7142518, z: -0.66887265, w: -0.08110786}
    legRightRot: {x: 0.044180535, y: -0.44137192, z: -0.89079386, w: 0.098616846}
    hipsRot: {x: -0.70793587, y: 0.6875388, z: 0.052040372, w: 0.15300001}
  - handLeftPos: {x: -0.288929, y: 0.78541195, z: -0.052934974}
    handRightPos: {x: 0.17171371, y: 1.016948, z: 0.43835577}
    headPos: {x: -0.022649392, y: 1.5236921, z: 0.17966327}
    legLeftPos: {x: -0.1624867, y: 0.05763812, z: 0.122989535}
    legRightPos: {x: 0.2427384, y: 0.15130392, z: -0.3239378}
    hipsPos: {x: -0.002173098, y: 0.958145, z: 0.005485742}
    handLeftRot: {x: 0.27032384, y: -0.2411868, z: 0.007252662, w: 0.9320415}
    handRightRot: {x: -0.08550631, y: -0.19184083, z: 0.12689649, w: 0.96942407}
    headRot: {x: 0.04976844, y: -0.07088266, z: 0.03496741, w: 0.9956285}
    legLeftRot: {x: 0.1974292, y: -0.7090906, z: -0.6737623, w: -0.065243475}
    legRightRot: {x: 0.03665327, y: -0.40754253, z: -0.9068403, w: 0.10102642}
    hipsRot: {x: -0.707163, y: 0.68731856, z: 0.05979222, w: 0.15472114}
  - handLeftPos: {x: -0.28759834, y: 0.78408515, z: -0.030657262}
    handRightPos: {x: 0.17480697, y: 1.0026656, z: 0.42627198}
    headPos: {x: -0.026093643, y: 1.5203173, z: 0.18178266}
    legLeftPos: {x: -0.14607932, y: 0.05149787, z: 0.08164507}
    legRightPos: {x: 0.24390705, y: 0.16697082, z: -0.31319234}
    hipsPos: {x: -0.002173098, y: 0.9566563, z: 0.005485742}
    handLeftRot: {x: 0.24592462, y: -0.23972376, z: 0.009837838, w: 0.9391256}
    handRightRot: {x: -0.070443876, y: -0.19092745, z: 0.14217818, w: 0.96869487}
    headRot: {x: 0.0419262, y: -0.0706309, z: 0.032258995, w: 0.9960988}
    legLeftRot: {x: 0.13408792, y: -0.6588135, z: -0.7402309, w: 0.006596874}
    legRightRot: {x: 0.032982185, y: -0.37021935, z: -0.9222082, w: 0.10668564}
    hipsRot: {x: -0.7075524, y: 0.68679965, z: 0.06866157, w: 0.15153039}
  - handLeftPos: {x: -0.2758191, y: 0.7727727, z: 0.065158695}
    handRightPos: {x: 0.1944966, y: 0.94636595, z: 0.4005153}
    headPos: {x: -0.021766163, y: 1.5139418, z: 0.17251635}
    legLeftPos: {x: -0.14763752, y: 0.052986648, z: 0.09182158}
    legRightPos: {x: 0.23417988, y: 0.24135962, z: -0.2732768}
    hipsPos: {x: -0.002173098, y: 0.9454904, z: 0.005485742}
    handLeftRot: {x: 0.17790997, y: -0.2031582, z: -0.009629638, w: 0.9627991}
    handRightRot: {x: 0.014083127, y: -0.17584033, z: 0.123791695, w: 0.9765027}
    headRot: {x: 0.02873995, y: -0.070678174, z: 0.029948808, w: 0.9966352}
    legLeftRot: {x: 0.3015297, y: -0.71800023, z: -0.60469306, w: -0.16703905}
    legRightRot: {x: 0.0817673, y: -0.24362841, z: -0.965075, w: 0.05088721}
    hipsRot: {x: -0.69806945, y: 0.69405633, z: 0.08247269, w: 0.15550928}
  - handLeftPos: {x: -0.27201614, y: 0.76918966, z: 0.09909397}
    handRightPos: {x: 0.20124242, y: 0.92727023, z: 0.3921939}
    headPos: {x: -0.036565192, y: 1.4890915, z: 0.2083647}
    legLeftPos: {x: -0.13888228, y: 0.046005588, z: 0.07323882}
    legRightPos: {x: 0.23089382, y: 0.25865415, z: -0.24468341}
    hipsPos: {x: -0.002173098, y: 0.9416296, z: 0.005485742}
    handLeftRot: {x: 0.15617795, y: -0.18907203, z: -0.007824888, w: 0.96943235}
    handRightRot: {x: 0.0374555, y: -0.1715461, z: 0.11625209, w: 0.97757584}
    headRot: {x: 0.026136069, y: -0.06724008, z: 0.039254986, w: 0.99662167}
    legLeftRot: {x: 0.30381784, y: -0.67139375, z: -0.65565395, w: -0.1644479}
    legRightRot: {x: 0.099965155, y: -0.26352054, z: -0.959209, w: 0.021953044}
    hipsRot: {x: -0.69331443, y: 0.69880384, z: 0.07771732, w: 0.15795039}
  - handLeftPos: {x: -0.2650736, y: 0.76584953, z: 0.1360724}
    handRightPos: {x: 0.21047977, y: 0.9064929, z: 0.3833114}
    headPos: {x: -0.03840109, y: 1.4792254, z: 0.21699077}
    legLeftPos: {x: -0.12891981, y: 0.043460008, z: 0.061830014}
    legRightPos: {x: 0.23074728, y: 0.27961275, z: -0.21731648}
    hipsPos: {x: -0.002173098, y: 0.93612576, z: 0.005485742}
    handLeftRot: {x: 0.13203117, y: -0.17085986, z: 0.0044299923, w: 0.97639906}
    handRightRot: {x: 0.05838752, y: -0.16502583, z: 0.10739447, w: 0.9786847}
    headRot: {x: 0.039728686, y: -0.06589635, z: 0.047376, w: 0.99590904}
    legLeftRot: {x: 0.28127426, y: -0.61945194, z: -0.7241668, w: -0.11290095}
    legRightRot: {x: 0.12944844, y: -0.23959044, z: -0.9621935, w: -0.0048096217}
    hipsRot: {x: -0.68733245, y: 0.7065134, z: 0.062248945, w: 0.1566462}
  - handLeftPos: {x: -0.25062537, y: 0.76427203, z: 0.24133795}
    handRightPos: {x: 0.23204389, y: 0.84609705, z: 0.35362837}
    headPos: {x: -0.049929462, y: 1.450256, z: 0.24192013}
    legLeftPos: {x: -0.12872696, y: 0.04438567, z: 0.05812928}
    legRightPos: {x: 0.21826246, y: 0.3437151, z: -0.13131633}
    hipsPos: {x: -0.002173098, y: 0.91304195, z: 0.005485742}
    handLeftRot: {x: 0.044138677, y: -0.105634846, z: 0.037531614, w: 0.9927157}
    handRightRot: {x: 0.1126826, y: -0.13987873, z: 0.11210947, w: 0.977327}
    headRot: {x: 0.06811432, y: -0.063804165, z: 0.0625528, w: 0.99366826}
    legLeftRot: {x: 0.16647112, y: -0.66074437, z: -0.73178107, w: -0.014168312}
    legRightRot: {x: 0.10178314, y: -0.18013453, z: -0.9760968, w: 0.06653364}
    hipsRot: {x: -0.6815016, y: 0.7105897, z: 0.053134862, w: 0.16671698}
  - handLeftPos: {x: -0.23739982, y: 0.7748208, z: 0.31086507}
    handRightPos: {x: 0.24990533, y: 0.8056377, z: 0.32428473}
    headPos: {x: -0.057647184, y: 1.4308015, z: 0.2549238}
    legLeftPos: {x: -0.139268, y: 0.04481765, z: 0.04670307}
    legRightPos: {x: 0.20283093, y: 0.3685461, z: -0.0680953}
    hipsPos: {x: -0.002173098, y: 0.9074571, z: 0.005485742}
    handLeftRot: {x: -0.02609137, y: -0.05128508, z: 0.02681021, w: 0.99798316}
    handRightRot: {x: 0.15501942, y: -0.11500644, z: 0.12751214, w: 0.9728737}
    headRot: {x: 0.09763954, y: -0.05975098, z: 0.06638911, w: 0.99120575}
    legLeftRot: {x: 0.20565063, y: -0.6482476, z: -0.7270551, w: -0.09420148}
    legRightRot: {x: 0.0690587, y: -0.20543948, z: -0.96376574, w: 0.1555025}
    hipsRot: {x: -0.6913404, y: 0.7082014, z: 0.03912573, w: 0.1377264}
  - handLeftPos: {x: -0.21043587, y: 0.7916833, z: 0.36440516}
    handRightPos: {x: 0.2841048, y: 0.77153856, z: 0.27975824}
    headPos: {x: -0.047734834, y: 1.4175298, z: 0.2550048}
    legLeftPos: {x: -0.11550542, y: 0.03744318, z: 0.014904529}
    legRightPos: {x: 0.20165849, y: 0.3656534, z: -0.01527831}
    hipsPos: {x: -0.002173098, y: 0.9115223, z: 0.005485742}
    handLeftRot: {x: -0.08575195, y: -0.015606871, z: 0.01138727, w: 0.9961292}
    handRightRot: {x: 0.20813966, y: -0.08437841, z: 0.13107839, w: 0.9655965}
    headRot: {x: 0.111907154, y: -0.053912632, z: 0.067971304, w: 0.9899243}
    legLeftRot: {x: 0.23606047, y: -0.5999672, z: -0.7616135, w: -0.06526772}
    legRightRot: {x: 0.057058215, y: -0.25692952, z: -0.95395154, w: 0.14390263}
    hipsRot: {x: -0.69566405, y: 0.70244706, z: 0.00026252214, w: 0.15039822}
  - handLeftPos: {x: -0.20541026, y: 0.8099035, z: 0.39169493}
    handRightPos: {x: 0.29365838, y: 0.76438004, z: 0.25526857}
    headPos: {x: -0.049088627, y: 1.4178576, z: 0.2567944}
    legLeftPos: {x: -0.122235775, y: 0.04016618, z: 0.013373345}
    legRightPos: {x: 0.1863696, y: 0.33338624, z: 0.019565284}
    hipsPos: {x: -0.002173098, y: 0.89288944, z: 0.005485742}
    handLeftRot: {x: -0.10793715, y: -0.0056903623, z: 0.008433459, w: 0.9941057}
    handRightRot: {x: 0.24189548, y: -0.06718028, z: 0.13397878, w: 0.95865697}
    headRot: {x: 0.106235445, y: -0.056146078, z: 0.0592543, w: 0.9909847}
    legLeftRot: {x: 0.21783897, y: -0.6245863, z: -0.7465431, w: -0.071496494}
    legRightRot: {x: 0.053956658, y: -0.32327414, z: -0.94213426, w: 0.070465595}
    hipsRot: {x: -0.68386674, y: 0.69795793, z: 0.05788284, w: 0.20452534}
  - handLeftPos: {x: -0.19694814, y: 0.83007145, z: 0.41679978}
    handRightPos: {x: 0.3037211, y: 0.75640774, z: 0.23366395}
    headPos: {x: -0.04886494, y: 1.4175607, z: 0.25869012}
    legLeftPos: {x: -0.11954751, y: 0.038808536, z: 0.0023367107}
    legRightPos: {x: 0.17941943, y: 0.32330033, z: 0.04943344}
    hipsPos: {x: -0.002173098, y: 0.8906833, z: 0.005485742}
    handLeftRot: {x: -0.13166839, y: 0.005249024, z: 0.0015000253, w: 0.9912788}
    handRightRot: {x: 0.26713386, y: -0.054426115, z: 0.13587177, w: 0.95247895}
    headRot: {x: 0.10269461, y: -0.059941188, z: 0.053183388, w: 0.99147993}
    legLeftRot: {x: 0.21572348, y: -0.6127707, z: -0.75734985, w: -0.06630846}
    legRightRot: {x: 0.05240804, y: -0.35506374, z: -0.93248737, w: 0.040624708}
    hipsRot: {x: -0.68376833, y: 0.69689703, z: 0.05325245, w: 0.20966576}
  - handLeftPos: {x: -0.19157922, y: 0.84853077, z: 0.43701205}
    handRightPos: {x: 0.3106713, y: 0.749365, z: 0.2093189}
    headPos: {x: -0.050157003, y: 1.4188758, z: 0.25705475}
    legLeftPos: {x: -0.11844445, y: 0.03826085, z: -0.011941701}
    legRightPos: {x: 0.17047521, y: 0.307294, z: 0.07909334}
    hipsPos: {x: -0.002173098, y: 0.89767593, z: 0.005485742}
    handLeftRot: {x: -0.15929994, y: 0.01748889, z: -0.00017263349, w: 0.9870753}
    handRightRot: {x: 0.29056147, y: -0.04151988, z: 0.13597663, w: 0.9462349}
    headRot: {x: 0.09707869, y: -0.06510112, z: 0.05049372, w: 0.99186087}
    legLeftRot: {x: 0.21877584, y: -0.60118854, z: -0.7662208, w: -0.060127564}
    legRightRot: {x: 0.053621676, y: -0.3980623, z: -0.9157406, w: 0.009496766}
    hipsRot: {x: -0.68860745, y: 0.70004445, z: 0.024550516, w: 0.1874965}
  - handLeftPos: {x: -0.18627977, y: 0.87325376, z: 0.45077553}
    handRightPos: {x: 0.31661868, y: 0.74477524, z: 0.18451877}
    headPos: {x: -0.052104756, y: 1.4206077, z: 0.25568554}
    legLeftPos: {x: -0.120075956, y: 0.038129713, z: -0.023167312}
    legRightPos: {x: 0.16146931, y: 0.29372144, z: 0.10976373}
    hipsPos: {x: -0.002173098, y: 0.9045837, z: 0.005485742}
    handLeftRot: {x: -0.19079387, y: 0.026756242, z: -0.00074252475, w: 0.9812651}
    handRightRot: {x: 0.31331494, y: -0.028106675, z: 0.13551944, w: 0.93950963}
    headRot: {x: 0.09428641, y: -0.06951738, z: 0.051460706, w: 0.9917809}
    legLeftRot: {x: 0.22112295, y: -0.60266465, z: -0.76426125, w: -0.06168393}
    legRightRot: {x: 0.0535072, y: -0.44154364, z: -0.8955722, w: -0.0112525895}
    hipsRot: {x: -0.69384855, y: 0.70041025, z: -0.00085449225, w: 0.1673293}
  - handLeftPos: {x: -0.17117211, y: 0.9294378, z: 0.47274464}
    handRightPos: {x: 0.32847872, y: 0.7529789, z: 0.14425036}
    headPos: {x: -0.045871936, y: 1.4301921, z: 0.25173214}
    legLeftPos: {x: -0.11707527, y: 0.03786744, z: -0.0460988}
    legRightPos: {x: 0.1515686, y: 0.25951812, z: 0.1744369}
    hipsPos: {x: -0.002173098, y: 0.9085371, z: 0.005485742}
    handLeftRot: {x: -0.25420442, y: 0.034641523, z: 0.0012976252, w: 0.9665291}
    handRightRot: {x: 0.34589443, y: -0.0059011877, z: 0.13156343, w: 0.92898506}
    headRot: {x: 0.0963581, y: -0.07529148, z: 0.058115747, w: 0.9907921}
    legLeftRot: {x: 0.21381871, y: -0.6122182, z: -0.75852275, w: -0.06413844}
    legRightRot: {x: 0.058729667, y: -0.52882856, z: -0.84506977, w: -0.05242449}
    hipsRot: {x: -0.69724524, y: 0.6962994, z: -0.011216093, w: 0.16997238}
  - handLeftPos: {x: -0.1665052, y: 0.9562397, z: 0.48009598}
    handRightPos: {x: 0.33071187, y: 0.756859, z: 0.1257486}
    headPos: {x: -0.04444875, y: 1.435669, z: 0.24915765}
    legLeftPos: {x: -0.11734527, y: 0.037875157, z: -0.058942407}
    legRightPos: {x: 0.14674363, y: 0.24410577, z: 0.2065498}
    hipsPos: {x: -0.002173098, y: 0.9079045, z: 0.005485742}
    handLeftRot: {x: -0.28413704, y: 0.038827192, z: 0.005094882, w: 0.9579837}
    handRightRot: {x: 0.3593911, y: 0.002264067, z: 0.12964211, w: 0.9241352}
    headRot: {x: 0.09951143, y: -0.07640977, z: 0.060925618, w: 0.9902258}
    legLeftRot: {x: 0.21450365, y: -0.6139502, z: -0.7567753, w: -0.06591327}
    legRightRot: {x: -0.06629963, y: 0.5677821, z: 0.8174401, w: 0.07084756}
    hipsRot: {x: -0.6960422, y: 0.69441986, z: 0.00037188898, w: 0.18249993}
  - handLeftPos: {x: -0.14927238, y: 1.0336678, z: 0.48933136}
    handRightPos: {x: 0.33221602, y: 0.7791714, z: 0.07797268}
    headPos: {x: -0.033903874, y: 1.456805, z: 0.23580296}
    legLeftPos: {x: -0.1137545, y: 0.039402504, z: -0.10326445}
    legRightPos: {x: 0.13869043, y: 0.20202655, z: 0.29313233}
    hipsPos: {x: -0.002173098, y: 0.9160658, z: 0.005485742}
    handLeftRot: {x: -0.35948092, y: 0.04954205, z: 0.009340573, w: 0.9317896}
    handRightRot: {x: 0.3719417, y: -0.0016826232, z: 0.13383694, w: 0.9185555}
    headRot: {x: 0.105864085, y: -0.07435924, z: 0.060794376, w: 0.9897311}
    legLeftRot: {x: 0.21773353, y: -0.61041695, z: -0.75769246, w: -0.07671697}
    legRightRot: {x: -0.099052615, y: 0.669188, z: 0.7258531, w: 0.124552295}
    hipsRot: {x: -0.6961868, y: 0.6930897, z: 0.010548338, w: 0.18665302}
  - handLeftPos: {x: -0.1386581, y: 1.076179, z: 0.47861487}
    handRightPos: {x: 0.3205179, y: 0.80553746, z: 0.06211105}
    headPos: {x: -0.025422484, y: 1.4767262, z: 0.22304036}
    legLeftPos: {x: -0.11410168, y: 0.040952995, z: -0.13775703}
    legRightPos: {x: 0.14562525, y: 0.17564893, z: 0.33565125}
    hipsPos: {x: -0.002173098, y: 0.9316787, z: 0.005485742}
    handLeftRot: {x: -0.38793024, y: 0.06355633, z: -0.008206902, w: 0.9194582}
    handRightRot: {x: 0.34598485, y: -0.019351514, z: 0.10771189, w: 0.9318359}
    headRot: {x: 0.10192075, y: -0.07005773, z: 0.049456086, w: 0.9910894}
    legLeftRot: {x: 0.19854522, y: -0.61246836, z: -0.76154196, w: -0.0742711}
    legRightRot: {x: -0.11306049, y: 0.7306279, z: 0.6637244, w: 0.11344664}
    hipsRot: {x: -0.6946602, y: 0.70044744, z: -0.0013340756, w: 0.16376479}
  - handLeftPos: {x: -0.13679135, y: 1.0743546, z: 0.4723165}
    handRightPos: {x: 0.31607857, y: 0.8098495, z: 0.068878055}
    headPos: {x: -0.023416877, y: 1.4802282, z: 0.21944377}
    legLeftPos: {x: -0.11401297, y: 0.041778382, z: -0.14215973}
    legRightPos: {x: 0.15208176, y: 0.17330392, z: 0.32491738}
    hipsPos: {x: -0.002173098, y: 0.9329785, z: 0.005485742}
    handLeftRot: {x: -0.38162374, y: 0.06500482, z: -0.008845677, w: 0.9219867}
    handRightRot: {x: 0.33455315, y: -0.021113932, z: 0.09784551, w: 0.93704575}
    headRot: {x: 0.0991291, y: -0.06838509, z: 0.045846373, w: 0.9916628}
    legLeftRot: {x: 0.20248318, y: -0.608319, z: -0.763418, w: -0.07836947}
    legRightRot: {x: 0.11094141, y: -0.72248954, z: -0.67689604, w: -0.08667502}
    hipsRot: {x: -0.6923642, y: 0.70327884, z: 1.0381642e-14, w: 0.1613402}
  - handLeftPos: {x: -0.13198946, y: 1.0908624, z: 0.4664771}
    handRightPos: {x: 0.31204808, y: 0.81948805, z: 0.061266392}
    headPos: {x: -0.018445283, y: 1.4896276, z: 0.21201916}
    legLeftPos: {x: -0.11456455, y: 0.044154257, z: -0.16113974}
    legRightPos: {x: 0.15814874, y: 0.1600476, z: 0.3403702}
    hipsPos: {x: -0.002173098, y: 0.9373021, z: 0.005485742}
    handLeftRot: {x: -0.3912151, y: 0.07341177, z: -0.011270865, w: 0.91729736}
    handRightRot: {x: 0.32562935, y: -0.023073226, z: 0.086116, w: 0.9412849}
    headRot: {x: 0.097079925, y: -0.066972345, z: 0.041815396, w: 0.99213994}
    legLeftRot: {x: 0.20160049, y: -0.6013755, z: -0.7684966, w: -0.084367916}
    legRightRot: {x: 0.11790636, y: -0.743872, z: -0.6534652, w: -0.07573512}
    hipsRot: {x: -0.6902042, y: 0.70617795, z: -0.0003908157, w: 0.15789463}
  - handLeftPos: {x: -0.1265859, y: 1.1077943, z: 0.46121812}
    handRightPos: {x: 0.30880824, y: 0.8287755, z: 0.055180132}
    headPos: {x: -0.012312762, y: 1.4979161, z: 0.20378071}
    legLeftPos: {x: -0.11289837, y: 0.04612901, z: -0.18162589}
    legRightPos: {x: 0.1674594, y: 0.14798695, z: 0.3488188}
    hipsPos: {x: -0.002173098, y: 0.9415756, z: 0.005485742}
    handLeftRot: {x: -0.4000905, y: 0.08105074, z: -0.012534072, w: 0.91279864}
    handRightRot: {x: 0.31515628, y: -0.025170768, z: 0.07478976, w: 0.9457534}
    headRot: {x: 0.09455541, y: -0.065019794, z: 0.038650043, w: 0.9926419}
    legLeftRot: {x: 0.19971287, y: -0.5929141, z: -0.77498174, w: -0.089281306}
    legRightRot: {x: 0.115204275, y: -0.7583565, z: -0.63971585, w: -0.048858084}
    hipsRot: {x: -0.6887399, y: 0.7081962, z: -0.0016864932, w: 0.1552182}
  - handLeftPos: {x: -0.11980926, y: 1.1319349, z: 0.44962418}
    handRightPos: {x: 0.2978275, y: 0.8456921, z: 0.0574731}
    headPos: {x: -0.003491953, y: 1.5106903, z: 0.18826231}
    legLeftPos: {x: -0.115656115, y: 0.057807826, z: -0.21668161}
    legRightPos: {x: 0.18065014, y: 0.13370855, z: 0.35764927}
    hipsPos: {x: -0.002173098, y: 0.9502075, z: 0.005485742}
    handLeftRot: {x: -0.4044873, y: 0.097963534, z: -0.023824047, w: 0.9089695}
    handRightRot: {x: 0.28117368, y: -0.028762262, z: 0.04862614, w: 0.9579925}
    headRot: {x: 0.08302372, y: -0.05924933, z: 0.031665515, w: 0.9942806}
    legLeftRot: {x: 0.2062284, y: -0.55855906, z: -0.7971082, w: -0.10050061}
    legRightRot: {x: 0.07096562, y: -0.8041811, z: -0.5899519, w: 0.014613319}
    hipsRot: {x: -0.6878414, y: 0.7096972, z: -0.012580314, w: 0.1518085}
  - handLeftPos: {x: -0.11625703, y: 1.1387116, z: 0.44338554}
    handRightPos: {x: 0.2944527, y: 0.851948, z: 0.061088987}
    headPos: {x: 0.0029491186, y: 1.5152608, z: 0.17977703}
    legLeftPos: {x: -0.11538616, y: 0.06529029, z: -0.2321923}
    legRightPos: {x: 0.18590716, y: 0.1274449, z: 0.35840136}
    hipsPos: {x: -0.002173098, y: 0.9549129, z: 0.005485742}
    handLeftRot: {x: -0.40113494, y: 0.107335836, z: -0.04115852, w: 0.90877706}
    handRightRot: {x: 0.25852287, y: -0.031795043, z: 0.036497597, w: 0.9647917}
    headRot: {x: 0.076839924, y: -0.057295345, z: 0.027049879, w: 0.99502826}
    legLeftRot: {x: 0.21305247, y: -0.5415697, z: -0.80565244, w: -0.110612735}
    legRightRot: {x: 0.041408654, y: -0.8224172, z: -0.5663183, w: 0.034625284}
    hipsRot: {x: -0.6876741, y: 0.7099352, z: -0.022748495, w: 0.15026273}
  - handLeftPos: {x: -0.10914485, y: 1.1619766, z: 0.4265095}
    handRightPos: {x: 0.2806757, y: 0.8669053, z: 0.07642998}
    headPos: {x: 0.017266065, y: 1.523507, z: 0.1585272}
    legLeftPos: {x: -0.1256148, y: 0.083101645, z: -0.2693597}
    legRightPos: {x: 0.19603544, y: 0.12174819, z: 0.32922167}
    hipsPos: {x: -0.002173098, y: 0.9637723, z: 0.005485742}
    handLeftRot: {x: -0.39957082, y: 0.13927479, z: -0.07555097, w: 0.90290517}
    handRightRot: {x: 0.19017157, y: -0.04056979, z: 0.025170473, w: 0.9805893}
    headRot: {x: 0.056175396, y: -0.058995165, z: 0.014407801, w: 0.9965723}
    legLeftRot: {x: 0.20821816, y: -0.5314254, z: -0.8108847, w: -0.129222}
    legRightRot: {x: 0.041034557, y: -0.824189, z: -0.5631082, w: 0.044019714}
    hipsRot: {x: -0.68525994, y: 0.70780045, z: -0.062495917, w: 0.15978618}
  - handLeftPos: {x: -0.11553582, y: 1.1643023, z: 0.41283664}
    handRightPos: {x: 0.26863438, y: 0.8682089, z: 0.096179456}
    headPos: {x: 0.02398483, y: 1.5218253, z: 0.14535959}
    legLeftPos: {x: -0.14089602, y: 0.09528957, z: -0.28986317}
    legRightPos: {x: 0.18894634, y: 0.11545751, z: 0.28457952}
    hipsPos: {x: -0.002173098, y: 0.9613077, z: 0.005485742}
    handLeftRot: {x: -0.39485294, y: 0.16057573, z: -0.09570741, w: 0.8995258}
    handRightRot: {x: 0.14832352, y: -0.036009293, z: 0.02368982, w: 0.98799914}
    headRot: {x: 0.05866109, y: -0.06666905, z: 0.016904663, w: 0.9959058}
    legLeftRot: {x: 0.19195527, y: -0.51472425, z: -0.8241332, w: -0.13790116}
    legRightRot: {x: 0.027271299, y: -0.83648604, z: -0.5451038, w: 0.04908337}
    hipsRot: {x: -0.68299806, y: 0.70778, z: -0.073030196, w: 0.1650086}
  - handLeftPos: {x: -0.12350811, y: 1.1563224, z: 0.4131356}
    handRightPos: {x: 0.265383, y: 0.86359215, z: 0.105104424}
    headPos: {x: 0.020922437, y: 1.5178488, z: 0.14887905}
    legLeftPos: {x: -0.14356115, y: 0.09481131, z: -0.28438437}
    legRightPos: {x: 0.1780042, y: 0.110574625, z: 0.26790598}
    hipsPos: {x: -0.002173098, y: 0.9593407, z: 0.005485742}
    handLeftRot: {x: -0.3941423, y: 0.15437567, z: -0.09407845, w: 0.9010934}
    handRightRot: {x: 0.1503282, y: -0.030674404, z: 0.023613589, w: 0.987878}
    headRot: {x: 0.07120963, y: -0.07129422, z: 0.024320686, w: 0.99461293}
    legLeftRot: {x: 0.20202927, y: -0.50701404, z: -0.8254655, w: -0.14397131}
    legRightRot: {x: 0.04182803, y: -0.7986406, z: -0.5989559, w: 0.040931053}
    hipsRot: {x: -0.6844744, y: 0.7086388, z: -0.068492904, w: 0.15695421}
  - handLeftPos: {x: -0.1300495, y: 1.1529938, z: 0.40826812}
    handRightPos: {x: 0.26038826, y: 0.8631293, z: 0.119604595}
    headPos: {x: 0.026090723, y: 1.5158664, z: 0.1449334}
    legLeftPos: {x: -0.14804678, y: 0.099767484, z: -0.2842841}
    legRightPos: {x: 0.1692759, y: 0.09912723, z: 0.2419025}
    hipsPos: {x: -0.002173098, y: 0.95977265, z: 0.005485742}
    handLeftRot: {x: -0.3918901, y: 0.15254103, z: -0.10071978, w: 0.9016701}
    handRightRot: {x: 0.12987977, y: -0.027258331, z: 0.014701746, w: 0.99104595}
    headRot: {x: 0.077916175, y: -0.075782746, z: 0.026903184, w: 0.9937114}
    legLeftRot: {x: 0.2474344, y: -0.5104681, z: -0.8011631, w: -0.19062069}
    legRightRot: {x: 0.04000683, y: -0.77255493, z: -0.63255733, w: 0.03780962}
    hipsRot: {x: -0.6838733, y: 0.70992947, z: -0.07261101, w: 0.1518063}
  - handLeftPos: {x: -0.1416859, y: 1.1361582, z: 0.4044459}
    handRightPos: {x: 0.25442162, y: 0.86730254, z: 0.15503445}
    headPos: {x: 0.038533214, y: 1.50838, z: 0.14582434}
    legLeftPos: {x: -0.14137432, y: 0.11750169, z: -0.3039854}
    legRightPos: {x: 0.15003358, y: 0.08018579, z: 0.21174316}
    hipsPos: {x: -0.002173098, y: 0.9522169, z: 0.005485742}
    handLeftRot: {x: -0.3763025, y: 0.13501638, z: -0.115347855, w: 0.90931946}
    handRightRot: {x: 0.07076668, y: -0.0366967, z: -0.009195063, w: 0.99677527}
    headRot: {x: 0.07236941, y: -0.07955794, z: 0.01811612, w: 0.9940347}
    legLeftRot: {x: 0.25626332, y: -0.4233876, z: -0.8394716, w: -0.2244093}
    legRightRot: {x: 0.061189163, y: -0.7467984, z: -0.66212416, w: -0.011817593}
    hipsRot: {x: -0.68187696, y: 0.7093343, z: -0.07014099, w: 0.16422233}
  - handLeftPos: {x: -0.14886366, y: 1.1234304, z: 0.4066116}
    handRightPos: {x: 0.25099283, y: 0.871576, z: 0.17698047}
    headPos: {x: 0.044924174, y: 1.5024134, z: 0.14960411}
    legLeftPos: {x: -0.12831084, y: 0.13203464, z: -0.3046989}
    legRightPos: {x: 0.14739543, y: 0.075441755, z: 0.21172005}
    hipsPos: {x: -0.002173098, y: 0.94321865, z: 0.005485742}
    handLeftRot: {x: -0.35856915, y: 0.12550282, z: -0.12142426, w: 0.9170242}
    handRightRot: {x: 0.034223475, y: -0.048316564, z: -0.011387924, w: 0.9981806}
    headRot: {x: 0.06376902, y: -0.07794446, z: 0.0070269355, w: 0.99489135}
    legLeftRot: {x: 0.27996814, y: -0.3635723, z: -0.8603223, w: -0.22198799}
    legRightRot: {x: 0.069204286, y: -0.7389343, z: -0.6697554, w: -0.024790583}
    hipsRot: {x: -0.6814146, y: 0.7065634, z: -0.056885928, w: 0.18222587}
  - handLeftPos: {x: -0.1541785, y: 1.1100699, z: 0.41233337}
    handRightPos: {x: 0.24806158, y: 0.87604237, z: 0.20182109}
    headPos: {x: 0.05091016, y: 1.4972064, z: 0.15846352}
    legLeftPos: {x: -0.11964813, y: 0.14928289, z: -0.28856725}
    legRightPos: {x: 0.16836178, y: 0.08777625, z: 0.21196494}
    hipsPos: {x: -0.002173098, y: 0.9334876, z: 0.005485742}
    handLeftRot: {x: -0.3402395, y: 0.11912736, z: -0.12812895, w: 0.92392033}
    handRightRot: {x: -0.00078163145, y: -0.058341056, z: -0.0036026258, w: 0.99828994}
    headRot: {x: 0.06779, y: -0.07523832, z: -0.003585773, w: 0.9948522}
    legLeftRot: {x: 0.28659517, y: -0.35412076, z: -0.8583838, w: -0.23587957}
    legRightRot: {x: 0.23370025, y: -0.72706825, z: -0.6404715, w: -0.08094513}
    hipsRot: {x: -0.6808144, y: 0.7020956, z: -0.048094463, w: 0.20307745}
  - handLeftPos: {x: -0.1633696, y: 1.0907313, z: 0.41586247}
    handRightPos: {x: 0.24298202, y: 0.882009, z: 0.22442469}
    headPos: {x: 0.054682247, y: 1.4930949, z: 0.16638374}
    legLeftPos: {x: -0.11567932, y: 0.16474922, z: -0.27365637}
    legRightPos: {x: 0.17208372, y: 0.084343575, z: 0.21517776}
    hipsPos: {x: -0.002173098, y: 0.9306065, z: 0.005485742}
    handLeftRot: {x: -0.31064188, y: 0.11301872, z: -0.13161348, w: 0.9345621}
    handRightRot: {x: -0.040682763, y: -0.06748943, z: 0.019202325, w: 0.99670523}
    headRot: {x: 0.073744394, y: -0.07228164, z: -0.010502585, w: 0.99459887}
    legLeftRot: {x: 0.26198322, y: -0.35573298, z: -0.8638301, w: -0.24210863}
    legRightRot: {x: 0.15665741, y: -0.761227, z: -0.62816775, w: -0.037378043}
    hipsRot: {x: -0.6812717, y: 0.70222646, z: -0.05952787, w: 0.19799846}
  - handLeftPos: {x: -0.188054, y: 1.0436342, z: 0.41085425}
    handRightPos: {x: 0.23055887, y: 0.89858615, z: 0.26687032}
    headPos: {x: 0.056120906, y: 1.4794145, z: 0.17410725}
    legLeftPos: {x: -0.09497138, y: 0.19548903, z: -0.25025052}
    legRightPos: {x: 0.1609371, y: 0.07869702, z: 0.15675284}
    hipsPos: {x: -0.002173098, y: 0.92276144, z: 0.005485742}
    handLeftRot: {x: -0.24317381, y: 0.08891161, z: -0.1392506, w: 0.9558088}
    handRightRot: {x: -0.10855208, y: -0.07634061, z: 0.025414383, w: 0.9908293}
    headRot: {x: 0.060015857, y: -0.067943074, z: -0.018724142, w: 0.99570644}
    legLeftRot: {x: 0.30706856, y: -0.28821135, z: -0.8691708, w: -0.25920144}
    legRightRot: {x: -0.01285081, y: 0.6187636, z: 0.78523356, w: 0.019353928}
    hipsRot: {x: -0.68894607, y: 0.70251137, z: -0.067642495, w: 0.16509274}
  - handLeftPos: {x: -0.19928545, y: 1.02072, z: 0.4068816}
    handRightPos: {x: 0.22576469, y: 0.9083095, z: 0.28795815}
    headPos: {x: 0.05665316, y: 1.4740455, z: 0.17742229}
    legLeftPos: {x: -0.082868285, y: 0.20812823, z: -0.23645234}
    legRightPos: {x: 0.16599357, y: 0.08382674, z: 0.17146705}
    hipsPos: {x: -0.002173098, y: 0.9203586, z: 0.005485742}
    handLeftRot: {x: -0.21232127, y: 0.075813524, z: -0.14307584, w: 0.9636915}
    handRightRot: {x: -0.13599476, y: -0.0830333, z: 0.00937322, w: 0.98717934}
    headRot: {x: 0.06854947, y: -0.06560778, z: -0.0178286, w: 0.9953285}
    legLeftRot: {x: 0.3207453, y: -0.26023123, z: -0.87556446, w: -0.25057772}
    legRightRot: {x: 0.01835992, y: 0.6352838, z: 0.771962, w: -0.012334964}
    hipsRot: {x: -0.6898891, y: 0.7031632, z: -0.07672376, w: 0.15403906}
  - handLeftPos: {x: -0.23409435, y: 0.94343853, z: 0.38245952}
    handRightPos: {x: 0.20804983, y: 0.9381738, z: 0.3500453}
    headPos: {x: 0.058531493, y: 1.4609203, z: 0.1828953}
    legLeftPos: {x: -0.057535827, y: 0.23699743, z: -0.16929531}
    legRightPos: {x: 0.15603492, y: 0.0767994, z: 0.15216501}
    hipsPos: {x: -0.002173098, y: 0.9205167, z: 0.005485742}
    handLeftRot: {x: -0.10757124, y: 0.039581098, z: -0.15442242, w: 0.98133355}
    handRightRot: {x: -0.220816, y: -0.11029484, z: -0.011875378, w: 0.9689863}
    headRot: {x: 0.09980689, y: -0.05998417, z: -0.013973872, w: 0.9930988}
    legLeftRot: {x: 0.32656333, y: -0.26478246, z: -0.8900111, w: -0.1764287}
    legRightRot: {x: -0.015166402, y: -0.66520274, z: -0.74612725, w: 0.023863357}
    hipsRot: {x: -0.6909782, y: 0.7058167, z: -0.10550195, w: 0.11507042}
  - handLeftPos: {x: -0.23798218, y: 0.9155181, z: 0.3579294}
    handRightPos: {x: 0.20502603, y: 0.9604438, z: 0.3651973}
    headPos: {x: 0.061119504, y: 1.4609127, z: 0.18140846}
    legLeftPos: {x: -0.043882214, y: 0.23633403, z: -0.13465613}
    legRightPos: {x: 0.15473899, y: 0.07903643, z: 0.15939483}
    hipsPos: {x: -0.002173098, y: 0.9143842, z: 0.005485742}
    handLeftRot: {x: -0.073914856, y: 0.031158552, z: -0.16660039, w: 0.9827564}
    handRightRot: {x: -0.2582461, y: -0.12213939, z: 0.011695839, w: 0.95825577}
    headRot: {x: 0.11604903, y: -0.06030383, z: -0.008298339, w: 0.9913764}
    legLeftRot: {x: 0.33943185, y: -0.2818982, z: -0.8882884, w: -0.12752736}
    legRightRot: {x: 0.066505045, y: -0.6646737, z: -0.743201, w: -0.037924007}
    hipsRot: {x: -0.6990957, y: 0.6929834, z: -0.08263967, w: 0.15559518}
  - handLeftPos: {x: -0.24528725, y: 0.89246136, z: 0.33940643}
    handRightPos: {x: 0.1994952, y: 0.978556, z: 0.3807639}
    headPos: {x: 0.061782897, y: 1.460446, z: 0.18233603}
    legLeftPos: {x: -0.037309952, y: 0.23746412, z: -0.1065622}
    legRightPos: {x: 0.15399845, y: 0.07938355, z: 0.1477064}
    hipsPos: {x: -0.002173098, y: 0.90764225, z: 0.005485742}
    handLeftRot: {x: -0.043523677, y: 0.02347657, z: -0.17061226, w: 0.9840966}
    handRightRot: {x: -0.2937201, y: -0.12841773, z: 0.025036618, w: 0.94689524}
    headRot: {x: 0.1159353, y: -0.060339555, z: -0.0066256034, w: 0.9914002}
    legLeftRot: {x: 0.3466887, y: -0.29892164, z: -0.8824847, w: -0.10804503}
    legRightRot: {x: 0.056635085, y: -0.656454, z: -0.751019, w: -0.042791095}
    hipsRot: {x: -0.701309, y: 0.6888069, z: -0.059703164, w: 0.17362693}
  - handLeftPos: {x: -0.2541775, y: 0.8702839, z: 0.3202818}
    handRightPos: {x: 0.1935401, y: 0.9955882, z: 0.39411277}
    headPos: {x: 0.06054867, y: 1.4604229, z: 0.18268895}
    legLeftPos: {x: -0.03471806, y: 0.23874848, z: -0.07637778}
    legRightPos: {x: 0.15379402, y: 0.08046349, z: 0.1416992}
    hipsPos: {x: -0.002173098, y: 0.9081051, z: 0.005485742}
    handLeftRot: {x: -0.011631321, y: 0.013532197, z: -0.1704638, w: 0.9852024}
    handRightRot: {x: -0.32648265, y: -0.13226786, z: 0.03391381, w: 0.9352883}
    headRot: {x: 0.11076013, y: -0.05909677, z: -0.006241972, w: 0.99206895}
    legLeftRot: {x: 0.35185933, y: -0.31758177, z: -0.8762208, w: -0.08702813}
    legRightRot: {x: 0.06746346, y: -0.65171367, z: -0.75349563, w: -0.054426584}
    hipsRot: {x: -0.70430654, y: 0.68783396, z: -0.054421287, w: 0.1669587}
  - handLeftPos: {x: -0.2586709, y: 0.85188246, z: 0.29628778}
    handRightPos: {x: 0.18966389, y: 1.0151005, z: 0.40513396}
    headPos: {x: 0.060024135, y: 1.4610515, z: 0.18236111}
    legLeftPos: {x: -0.0290946, y: 0.23815452, z: -0.049622193}
    legRightPos: {x: 0.15414114, y: 0.078334466, z: 0.13122568}
    hipsPos: {x: -0.002173098, y: 0.9099796, z: 0.005485742}
    handLeftRot: {x: 0.020981895, y: 0.0062052077, z: -0.1614545, w: 0.9866376}
    handRightRot: {x: -0.35365924, y: -0.13106926, z: 0.03586687, w: 0.92545104}
    headRot: {x: 0.10561519, y: -0.05672623, z: -0.008343319, w: 0.99275273}
    legLeftRot: {x: 0.35650378, y: -0.33636948, z: -0.86941785, w: -0.062236305}
    legRightRot: {x: 0.055087257, y: -0.64696765, z: -0.75919807, w: -0.044906363}
    hipsRot: {x: -0.70504236, y: 0.6894159, z: -0.0586264, w: 0.15551198}
  - handLeftPos: {x: -0.27214813, y: 0.8184611, z: 0.19663988}
    handRightPos: {x: 0.19331838, y: 1.0016456, z: 0.44100544}
    headPos: {x: 0.057739872, y: 1.4645044, z: 0.19212447}
    legLeftPos: {x: -0.0563467, y: 0.21496949, z: 0.01938333}
    legRightPos: {x: 0.15964492, y: 0.07305431, z: 0.061982505}
    hipsPos: {x: -0.002173098, y: 0.9127209, z: 0.005485742}
    handLeftRot: {x: 0.12788841, y: -0.072468646, z: -0.121103264, w: 0.9816959}
    handRightRot: {x: -0.29462168, y: -0.14089206, z: 0.045649055, w: 0.9440676}
    headRot: {x: 0.08050194, y: -0.0647625, z: -0.0030341123, w: 0.9946437}
    legLeftRot: {x: 0.34990484, y: -0.42558652, z: -0.8308747, w: -0.07803896}
    legRightRot: {x: 0.032642886, y: -0.63130695, z: -0.77470225, w: -0.014912718}
    hipsRot: {x: -0.70637894, y: 0.689841, z: -0.02385559, w: 0.15677696}
  - handLeftPos: {x: -0.28562534, y: 0.7850398, z: 0.096991986}
    handRightPos: {x: 0.19697288, y: 0.9881906, z: 0.4768769}
    headPos: {x: 0.05545561, y: 1.4679573, z: 0.20188785}
    legLeftPos: {x: -0.08359881, y: 0.19178444, z: 0.08838885}
    legRightPos: {x: 0.16514868, y: 0.06777416, z: -0.0072606653}
    hipsPos: {x: -0.002173098, y: 0.91546226, z: 0.005485742}
    handLeftRot: {x: 0.23233038, y: -0.14974594, z: -0.078418225, w: 0.9578358}
    handRightRot: {x: -0.23390147, y: -0.1502212, z: 0.05532523, w: 0.9589906}
    headRot: {x: 0.055293404, y: -0.072763294, z: 0.0022850465, w: 0.9958127}
    legLeftRot: {x: 0.33989826, y: -0.5106589, z: -0.78424007, w: -0.093081616}
    legRightRot: {x: 0.010051102, y: -0.6143873, z: -0.7887937, w: 0.015223384}
    hipsRot: {x: -0.7068591, y: 0.6894277, z: 0.011028957, w: 0.15785424}
  folderPath: Assets\YetiFam\ik animations\anims
