%YAML 1.1
%TAG !u! tag:unity3d.com,2011:
--- !u!114 &11400000
MonoBehaviour:
  m_ObjectHideFlags: 0
  m_PrefabParentObject: {fileID: 0}
  m_PrefabInternal: {fileID: 0}
  m_GameObject: {fileID: 0}
  m_Enabled: 1
  m_EditorHideFlags: 0
  m_Script: {fileID: 1719459976, guid: 6012f3241c1c1f7409c44769fc0a1db7, type: 3}
  m_Name: SetFacingAI
  m_EditorClassIdentifier: 
  description: 
  version: 16778497
  aiId: f27e7814-fd04-45df-81f2-ede7e304d5d4
  configuration: '{"@type":"Apex.AI.UtilityAI, ApexAI","_rootSelectorId":04d62db5f87247259ccd712ae70d3a6f,"_id":f27e7814fd0445df81f2ede7e304d5d4,"_selectors":[{"@type":"Apex.AI.ScoreSelector,
    ApexAI","_id":04d62db5f87247259ccd712ae70d3a6f,"_qualifiers":[{"@type":"Core.AI.IsSlopeNodeType,
    Assembly-CSharp","action":{"@type":"Core.AI.SetFacingToCurrentNodeParent, Assembly-CSharp"},"nodeType":Goal,"score":10}],"_defaultQualifier":{"@type":"Apex.AI.DefaultQualifier,
    ApexAI","action":{"@type":"Core.AI.SetFacingToVelocity, Assembly-CSharp"}}}]}'
  editorConfiguration: '{"offset":{"@x":0,"@y":0},"zoom":1,"SelectorView":{"ViewArea":{"@left":100,"@top":100,"@width":460,"@height":160},"QualifierView":{"Name":"Is
    Slope Node Type Goal","ActionView":{}},"DefaultQualifier":{"ActionView":{}}}}'
